# Blender v2.82 (sub 7) OBJ File: ''
# www.blender.org
mtllib 124.mtl
o Text
v 0.168000 0.682000 0.100000
v 0.168000 -0.230000 0.100000
v 0.092000 -0.230000 0.100000
v 0.092000 0.682000 0.100000
v 0.168000 0.682000 -0.100000
v 0.168000 -0.230000 -0.100000
v 0.092000 -0.230000 -0.100000
v 0.092000 0.682000 -0.100000
v 0.168000 0.682000 -0.100000
v 0.168000 0.682000 0.100000
v 0.168000 -0.230000 -0.100000
v 0.168000 -0.230000 0.100000
v 0.092000 -0.230000 -0.100000
v 0.092000 -0.230000 0.100000
v 0.092000 0.682000 -0.100000
v 0.092000 0.682000 0.100000
vt 0.666667 0.000000
vt 0.000000 0.000000
vt 1.000000 0.000000
vt 0.333333 0.000000
vt 0.000000 0.000000
vt 0.666667 0.000000
vt 1.000000 0.000000
vt 0.333333 0.000000
vt 0.000000 1.000000
vt 0.250000 1.000000
vt 0.250000 0.000000
vt 0.000000 0.000000
vt 0.500000 1.000000
vt 0.500000 0.000000
vt 0.750000 1.000000
vt 0.750000 0.000000
vt 1.000000 1.000000
vt 1.000000 0.000000
vn 0.0000 0.0000 1.0000
vn 0.0000 0.0000 -1.0000
vn 0.7071 0.7071 0.0000
vn 0.7071 -0.7071 0.0000
vn -0.7071 -0.7071 0.0000
vn -0.7071 0.7071 0.0000
usemtl None
s off
f 3/1/1 1/2/1 4/3/1
f 3/1/1 2/4/1 1/2/1
f 5/5/2 7/6/2 8/7/2
f 6/8/2 7/6/2 5/5/2
s 1
f 10/9/3 12/10/4 11/11/4 9/12/3
f 12/10/4 14/13/5 13/14/5 11/11/4
f 14/13/5 16/15/6 15/16/6 13/14/5
f 16/15/6 10/17/3 9/18/3 15/16/6
