# Blender v2.82 (sub 7) OBJ File: ''
# www.blender.org
mtllib 51.mtl
o Text
v 0.091216 0.666772 0.100000
v 0.101398 0.671093 0.100000
v 0.111594 0.674969 0.100000
v 0.121852 0.678407 0.100000
v 0.132221 0.681415 0.100000
v 0.142750 0.684000 0.100000
v 0.153487 0.686168 0.100000
v 0.164482 0.687926 0.100000
v 0.175781 0.689281 0.100000
v 0.187435 0.690241 0.100000
v 0.199492 0.690811 0.100000
v 0.212000 0.691000 0.100000
v 0.241583 0.689560 0.100000
v 0.269250 0.685315 0.100000
v 0.294875 0.678375 0.100000
v 0.318333 0.668852 0.100000
v 0.339500 0.656857 0.100000
v 0.358250 0.642500 0.100000
v 0.374458 0.625894 0.100000
v 0.388000 0.607148 0.100000
v 0.398750 0.586375 0.100000
v 0.406583 0.563685 0.100000
v 0.411375 0.539190 0.100000
v 0.413000 0.513000 0.100000
v 0.412472 0.494674 0.100000
v 0.410861 0.477639 0.100000
v 0.408125 0.461813 0.100000
v 0.404222 0.447111 0.100000
v 0.399111 0.433451 0.100000
v 0.392750 0.420750 0.100000
v 0.385097 0.408924 0.100000
v 0.376111 0.397889 0.100000
v 0.365750 0.387563 0.100000
v 0.353972 0.377861 0.100000
v 0.340736 0.368701 0.100000
v 0.326000 0.360000 0.100000
v 0.342213 0.353738 0.100000
v 0.356870 0.345569 0.100000
v 0.370000 0.335672 0.100000
v 0.381630 0.324222 0.100000
v 0.391787 0.311398 0.100000
v 0.400500 0.297375 0.100000
v 0.407796 0.282332 0.100000
v 0.413704 0.266444 0.100000
v 0.418250 0.249891 0.100000
v 0.421463 0.232847 0.100000
v 0.423370 0.215491 0.100000
v 0.424000 0.198000 0.100000
v 0.422176 0.168299 0.100000
v 0.416824 0.140306 0.100000
v 0.408125 0.114188 0.100000
v 0.396259 0.090111 0.100000
v 0.381407 0.068243 0.100000
v 0.363750 0.048750 0.100000
v 0.343468 0.031799 0.100000
v 0.320741 0.017556 0.100000
v 0.295750 0.006188 0.100000
v 0.268676 -0.002139 0.100000
v 0.239699 -0.007257 0.100000
v 0.209000 -0.009000 0.100000
v 0.197210 -0.008710 0.100000
v 0.185343 -0.007847 0.100000
v 0.173406 -0.006422 0.100000
v 0.161407 -0.004444 0.100000
v 0.149353 -0.001925 0.100000
v 0.137250 0.001125 0.100000
v 0.125105 0.004696 0.100000
v 0.112926 0.008778 0.100000
v 0.100719 0.013359 0.100000
v 0.088491 0.018431 0.100000
v 0.076249 0.023981 0.100000
v 0.064000 0.030000 0.100000
v 0.064000 0.136000 0.100000
v 0.076959 0.127624 0.100000
v 0.089843 0.119995 0.100000
v 0.102656 0.113109 0.100000
v 0.115407 0.106963 0.100000
v 0.128103 0.101553 0.100000
v 0.140750 0.096875 0.100000
v 0.153355 0.092927 0.100000
v 0.165926 0.089704 0.100000
v 0.178469 0.087203 0.100000
v 0.190991 0.085421 0.100000
v 0.203499 0.084355 0.100000
v 0.216000 0.084000 0.100000
v 0.232239 0.084884 0.100000
v 0.247412 0.087491 0.100000
v 0.261453 0.091750 0.100000
v 0.274296 0.097593 0.100000
v 0.285876 0.104949 0.100000
v 0.296125 0.113750 0.100000
v 0.304979 0.123926 0.100000
v 0.312370 0.135407 0.100000
v 0.318234 0.148125 0.100000
v 0.322505 0.162009 0.100000
v 0.325115 0.176991 0.100000
v 0.326000 0.193000 0.100000
v 0.324980 0.209413 0.100000
v 0.321921 0.225056 0.100000
v 0.316828 0.239781 0.100000
v 0.309704 0.253444 0.100000
v 0.300552 0.265899 0.100000
v 0.289375 0.277000 0.100000
v 0.276178 0.286601 0.100000
v 0.260963 0.294556 0.100000
v 0.243734 0.300719 0.100000
v 0.224495 0.304944 0.100000
v 0.203249 0.307087 0.100000
v 0.180000 0.307000 0.100000
v 0.180000 0.397000 0.100000
v 0.201563 0.397764 0.100000
v 0.221250 0.400028 0.100000
v 0.239063 0.403750 0.100000
v 0.255000 0.408889 0.100000
v 0.269063 0.415403 0.100000
v 0.281250 0.423250 0.100000
v 0.291563 0.432389 0.100000
v 0.300000 0.442778 0.100000
v 0.306563 0.454375 0.100000
v 0.311250 0.467139 0.100000
v 0.314063 0.481028 0.100000
v 0.315000 0.496000 0.100000
v 0.314053 0.511241 0.100000
v 0.311259 0.525431 0.100000
v 0.306688 0.538516 0.100000
v 0.300407 0.550444 0.100000
v 0.292488 0.561165 0.100000
v 0.283000 0.570625 0.100000
v 0.272012 0.578773 0.100000
v 0.259593 0.585556 0.100000
v 0.245813 0.590922 0.100000
v 0.230741 0.594819 0.100000
v 0.214447 0.597196 0.100000
v 0.197000 0.598000 0.100000
v 0.187843 0.597830 0.100000
v 0.178824 0.597310 0.100000
v 0.169875 0.596422 0.100000
v 0.160926 0.595148 0.100000
v 0.151907 0.593472 0.100000
v 0.142750 0.591375 0.100000
v 0.133384 0.588841 0.100000
v 0.123741 0.585852 0.100000
v 0.113750 0.582391 0.100000
v 0.103343 0.578440 0.100000
v 0.092449 0.573982 0.100000
v 0.081000 0.569000 0.100000
v 0.081000 0.662000 0.100000
v 0.091216 0.666772 -0.100000
v 0.101398 0.671093 -0.100000
v 0.111594 0.674969 -0.100000
v 0.121852 0.678407 -0.100000
v 0.132221 0.681415 -0.100000
v 0.142750 0.684000 -0.100000
v 0.153487 0.686168 -0.100000
v 0.164482 0.687926 -0.100000
v 0.175781 0.689281 -0.100000
v 0.187435 0.690241 -0.100000
v 0.199492 0.690811 -0.100000
v 0.212000 0.691000 -0.100000
v 0.241583 0.689560 -0.100000
v 0.269250 0.685315 -0.100000
v 0.294875 0.678375 -0.100000
v 0.318333 0.668852 -0.100000
v 0.339500 0.656857 -0.100000
v 0.358250 0.642500 -0.100000
v 0.374458 0.625894 -0.100000
v 0.388000 0.607148 -0.100000
v 0.398750 0.586375 -0.100000
v 0.406583 0.563685 -0.100000
v 0.411375 0.539190 -0.100000
v 0.413000 0.513000 -0.100000
v 0.412472 0.494674 -0.100000
v 0.410861 0.477639 -0.100000
v 0.408125 0.461813 -0.100000
v 0.404222 0.447111 -0.100000
v 0.399111 0.433451 -0.100000
v 0.392750 0.420750 -0.100000
v 0.385097 0.408924 -0.100000
v 0.376111 0.397889 -0.100000
v 0.365750 0.387563 -0.100000
v 0.353972 0.377861 -0.100000
v 0.340736 0.368701 -0.100000
v 0.326000 0.360000 -0.100000
v 0.342213 0.353738 -0.100000
v 0.356870 0.345569 -0.100000
v 0.370000 0.335672 -0.100000
v 0.381630 0.324222 -0.100000
v 0.391787 0.311398 -0.100000
v 0.400500 0.297375 -0.100000
v 0.407796 0.282332 -0.100000
v 0.413704 0.266444 -0.100000
v 0.418250 0.249891 -0.100000
v 0.421463 0.232847 -0.100000
v 0.423370 0.215491 -0.100000
v 0.424000 0.198000 -0.100000
v 0.422176 0.168299 -0.100000
v 0.416824 0.140306 -0.100000
v 0.408125 0.114188 -0.100000
v 0.396259 0.090111 -0.100000
v 0.381407 0.068243 -0.100000
v 0.363750 0.048750 -0.100000
v 0.343468 0.031799 -0.100000
v 0.320741 0.017556 -0.100000
v 0.295750 0.006188 -0.100000
v 0.268676 -0.002139 -0.100000
v 0.239699 -0.007257 -0.100000
v 0.209000 -0.009000 -0.100000
v 0.197210 -0.008710 -0.100000
v 0.185343 -0.007847 -0.100000
v 0.173406 -0.006422 -0.100000
v 0.161407 -0.004444 -0.100000
v 0.149353 -0.001925 -0.100000
v 0.137250 0.001125 -0.100000
v 0.125105 0.004696 -0.100000
v 0.112926 0.008778 -0.100000
v 0.100719 0.013359 -0.100000
v 0.088491 0.018431 -0.100000
v 0.076249 0.023981 -0.100000
v 0.064000 0.030000 -0.100000
v 0.064000 0.136000 -0.100000
v 0.076959 0.127624 -0.100000
v 0.089843 0.119995 -0.100000
v 0.102656 0.113109 -0.100000
v 0.115407 0.106963 -0.100000
v 0.128103 0.101553 -0.100000
v 0.140750 0.096875 -0.100000
v 0.153355 0.092927 -0.100000
v 0.165926 0.089704 -0.100000
v 0.178469 0.087203 -0.100000
v 0.190991 0.085421 -0.100000
v 0.203499 0.084355 -0.100000
v 0.216000 0.084000 -0.100000
v 0.232239 0.084884 -0.100000
v 0.247412 0.087491 -0.100000
v 0.261453 0.091750 -0.100000
v 0.274296 0.097593 -0.100000
v 0.285876 0.104949 -0.100000
v 0.296125 0.113750 -0.100000
v 0.304979 0.123926 -0.100000
v 0.312370 0.135407 -0.100000
v 0.318234 0.148125 -0.100000
v 0.322505 0.162009 -0.100000
v 0.325115 0.176991 -0.100000
v 0.326000 0.193000 -0.100000
v 0.324980 0.209413 -0.100000
v 0.321921 0.225056 -0.100000
v 0.316828 0.239781 -0.100000
v 0.309704 0.253444 -0.100000
v 0.300552 0.265899 -0.100000
v 0.289375 0.277000 -0.100000
v 0.276178 0.286601 -0.100000
v 0.260963 0.294556 -0.100000
v 0.243734 0.300719 -0.100000
v 0.224495 0.304944 -0.100000
v 0.203249 0.307087 -0.100000
v 0.180000 0.307000 -0.100000
v 0.180000 0.397000 -0.100000
v 0.201563 0.397764 -0.100000
v 0.221250 0.400028 -0.100000
v 0.239063 0.403750 -0.100000
v 0.255000 0.408889 -0.100000
v 0.269063 0.415403 -0.100000
v 0.281250 0.423250 -0.100000
v 0.291563 0.432389 -0.100000
v 0.300000 0.442778 -0.100000
v 0.306563 0.454375 -0.100000
v 0.311250 0.467139 -0.100000
v 0.314063 0.481028 -0.100000
v 0.315000 0.496000 -0.100000
v 0.314053 0.511241 -0.100000
v 0.311259 0.525431 -0.100000
v 0.306688 0.538516 -0.100000
v 0.300407 0.550444 -0.100000
v 0.292488 0.561165 -0.100000
v 0.283000 0.570625 -0.100000
v 0.272012 0.578773 -0.100000
v 0.259593 0.585556 -0.100000
v 0.245813 0.590922 -0.100000
v 0.230741 0.594819 -0.100000
v 0.214447 0.597196 -0.100000
v 0.197000 0.598000 -0.100000
v 0.187843 0.597830 -0.100000
v 0.178824 0.597310 -0.100000
v 0.169875 0.596422 -0.100000
v 0.160926 0.595148 -0.100000
v 0.151907 0.593472 -0.100000
v 0.142750 0.591375 -0.100000
v 0.133384 0.588841 -0.100000
v 0.123741 0.585852 -0.100000
v 0.113750 0.582391 -0.100000
v 0.103343 0.578440 -0.100000
v 0.092449 0.573982 -0.100000
v 0.081000 0.569000 -0.100000
v 0.081000 0.662000 -0.100000
v 0.091216 0.666772 -0.100000
v 0.091216 0.666772 0.100000
v 0.101398 0.671093 -0.100000
v 0.101398 0.671093 0.100000
v 0.111594 0.674969 -0.100000
v 0.111594 0.674969 0.100000
v 0.121852 0.678407 -0.100000
v 0.121852 0.678407 0.100000
v 0.132221 0.681415 -0.100000
v 0.132221 0.681415 0.100000
v 0.142750 0.684000 -0.100000
v 0.142750 0.684000 0.100000
v 0.153487 0.686168 -0.100000
v 0.153487 0.686168 0.100000
v 0.164482 0.687926 -0.100000
v 0.164482 0.687926 0.100000
v 0.175781 0.689281 -0.100000
v 0.175781 0.689281 0.100000
v 0.187435 0.690241 -0.100000
v 0.187435 0.690241 0.100000
v 0.199492 0.690811 -0.100000
v 0.199492 0.690811 0.100000
v 0.212000 0.691000 -0.100000
v 0.212000 0.691000 0.100000
v 0.241583 0.689560 -0.100000
v 0.241583 0.689560 0.100000
v 0.269250 0.685315 -0.100000
v 0.269250 0.685315 0.100000
v 0.294875 0.678375 -0.100000
v 0.294875 0.678375 0.100000
v 0.318333 0.668852 -0.100000
v 0.318333 0.668852 0.100000
v 0.339500 0.656857 -0.100000
v 0.339500 0.656857 0.100000
v 0.358250 0.642500 -0.100000
v 0.358250 0.642500 0.100000
v 0.374458 0.625894 -0.100000
v 0.374458 0.625894 0.100000
v 0.388000 0.607148 -0.100000
v 0.388000 0.607148 0.100000
v 0.398750 0.586375 -0.100000
v 0.398750 0.586375 0.100000
v 0.406583 0.563685 -0.100000
v 0.406583 0.563685 0.100000
v 0.411375 0.539190 -0.100000
v 0.411375 0.539190 0.100000
v 0.413000 0.513000 -0.100000
v 0.413000 0.513000 0.100000
v 0.412472 0.494674 -0.100000
v 0.412472 0.494674 0.100000
v 0.410861 0.477639 -0.100000
v 0.410861 0.477639 0.100000
v 0.408125 0.461813 -0.100000
v 0.408125 0.461813 0.100000
v 0.404222 0.447111 -0.100000
v 0.404222 0.447111 0.100000
v 0.399111 0.433451 -0.100000
v 0.399111 0.433451 0.100000
v 0.392750 0.420750 -0.100000
v 0.392750 0.420750 0.100000
v 0.385097 0.408924 -0.100000
v 0.385097 0.408924 0.100000
v 0.376111 0.397889 -0.100000
v 0.376111 0.397889 0.100000
v 0.365750 0.387563 -0.100000
v 0.365750 0.387563 0.100000
v 0.353972 0.377861 -0.100000
v 0.353972 0.377861 0.100000
v 0.340736 0.368701 -0.100000
v 0.340736 0.368701 0.100000
v 0.326000 0.360000 -0.100000
v 0.326000 0.360000 0.100000
v 0.342213 0.353738 -0.100000
v 0.342213 0.353738 0.100000
v 0.356870 0.345569 -0.100000
v 0.356870 0.345569 0.100000
v 0.370000 0.335672 -0.100000
v 0.370000 0.335672 0.100000
v 0.381630 0.324222 -0.100000
v 0.381630 0.324222 0.100000
v 0.391787 0.311398 -0.100000
v 0.391787 0.311398 0.100000
v 0.400500 0.297375 -0.100000
v 0.400500 0.297375 0.100000
v 0.407796 0.282332 -0.100000
v 0.407796 0.282332 0.100000
v 0.413704 0.266444 -0.100000
v 0.413704 0.266444 0.100000
v 0.418250 0.249891 -0.100000
v 0.418250 0.249891 0.100000
v 0.421463 0.232847 -0.100000
v 0.421463 0.232847 0.100000
v 0.423370 0.215491 -0.100000
v 0.423370 0.215491 0.100000
v 0.424000 0.198000 -0.100000
v 0.424000 0.198000 0.100000
v 0.422176 0.168299 -0.100000
v 0.422176 0.168299 0.100000
v 0.416824 0.140306 -0.100000
v 0.416824 0.140306 0.100000
v 0.408125 0.114188 -0.100000
v 0.408125 0.114188 0.100000
v 0.396259 0.090111 -0.100000
v 0.396259 0.090111 0.100000
v 0.381407 0.068243 -0.100000
v 0.381407 0.068243 0.100000
v 0.363750 0.048750 -0.100000
v 0.363750 0.048750 0.100000
v 0.343468 0.031799 -0.100000
v 0.343468 0.031799 0.100000
v 0.320741 0.017556 -0.100000
v 0.320741 0.017556 0.100000
v 0.295750 0.006188 -0.100000
v 0.295750 0.006188 0.100000
v 0.268676 -0.002139 -0.100000
v 0.268676 -0.002139 0.100000
v 0.239699 -0.007257 -0.100000
v 0.239699 -0.007257 0.100000
v 0.209000 -0.009000 -0.100000
v 0.209000 -0.009000 0.100000
v 0.197210 -0.008710 -0.100000
v 0.197210 -0.008710 0.100000
v 0.185343 -0.007847 -0.100000
v 0.185343 -0.007847 0.100000
v 0.173406 -0.006422 -0.100000
v 0.173406 -0.006422 0.100000
v 0.161407 -0.004444 -0.100000
v 0.161407 -0.004444 0.100000
v 0.149353 -0.001925 -0.100000
v 0.149353 -0.001925 0.100000
v 0.137250 0.001125 -0.100000
v 0.137250 0.001125 0.100000
v 0.125105 0.004696 -0.100000
v 0.125105 0.004696 0.100000
v 0.112926 0.008778 -0.100000
v 0.112926 0.008778 0.100000
v 0.100719 0.013359 -0.100000
v 0.100719 0.013359 0.100000
v 0.088491 0.018431 -0.100000
v 0.088491 0.018431 0.100000
v 0.076249 0.023981 -0.100000
v 0.076249 0.023981 0.100000
v 0.064000 0.030000 -0.100000
v 0.064000 0.030000 0.100000
v 0.064000 0.136000 -0.100000
v 0.064000 0.136000 0.100000
v 0.076959 0.127624 -0.100000
v 0.076959 0.127624 0.100000
v 0.089843 0.119995 -0.100000
v 0.089843 0.119995 0.100000
v 0.102656 0.113109 -0.100000
v 0.102656 0.113109 0.100000
v 0.115407 0.106963 -0.100000
v 0.115407 0.106963 0.100000
v 0.128103 0.101553 -0.100000
v 0.128103 0.101553 0.100000
v 0.140750 0.096875 -0.100000
v 0.140750 0.096875 0.100000
v 0.153355 0.092927 -0.100000
v 0.153355 0.092927 0.100000
v 0.165926 0.089704 -0.100000
v 0.165926 0.089704 0.100000
v 0.178469 0.087203 -0.100000
v 0.178469 0.087203 0.100000
v 0.190991 0.085421 -0.100000
v 0.190991 0.085421 0.100000
v 0.203499 0.084355 -0.100000
v 0.203499 0.084355 0.100000
v 0.216000 0.084000 -0.100000
v 0.216000 0.084000 0.100000
v 0.232239 0.084884 -0.100000
v 0.232239 0.084884 0.100000
v 0.247412 0.087491 -0.100000
v 0.247412 0.087491 0.100000
v 0.261453 0.091750 -0.100000
v 0.261453 0.091750 0.100000
v 0.274296 0.097593 -0.100000
v 0.274296 0.097593 0.100000
v 0.285876 0.104949 -0.100000
v 0.285876 0.104949 0.100000
v 0.296125 0.113750 -0.100000
v 0.296125 0.113750 0.100000
v 0.304979 0.123926 -0.100000
v 0.304979 0.123926 0.100000
v 0.312370 0.135407 -0.100000
v 0.312370 0.135407 0.100000
v 0.318234 0.148125 -0.100000
v 0.318234 0.148125 0.100000
v 0.322505 0.162009 -0.100000
v 0.322505 0.162009 0.100000
v 0.325115 0.176991 -0.100000
v 0.325115 0.176991 0.100000
v 0.326000 0.193000 -0.100000
v 0.326000 0.193000 0.100000
v 0.324980 0.209413 -0.100000
v 0.324980 0.209413 0.100000
v 0.321921 0.225056 -0.100000
v 0.321921 0.225056 0.100000
v 0.316828 0.239781 -0.100000
v 0.316828 0.239781 0.100000
v 0.309704 0.253444 -0.100000
v 0.309704 0.253444 0.100000
v 0.300552 0.265899 -0.100000
v 0.300552 0.265899 0.100000
v 0.289375 0.277000 -0.100000
v 0.289375 0.277000 0.100000
v 0.276178 0.286601 -0.100000
v 0.276178 0.286601 0.100000
v 0.260963 0.294556 -0.100000
v 0.260963 0.294556 0.100000
v 0.243734 0.300719 -0.100000
v 0.243734 0.300719 0.100000
v 0.224495 0.304944 -0.100000
v 0.224495 0.304944 0.100000
v 0.203249 0.307087 -0.100000
v 0.203249 0.307087 0.100000
v 0.180000 0.307000 -0.100000
v 0.180000 0.307000 0.100000
v 0.180000 0.397000 -0.100000
v 0.180000 0.397000 0.100000
v 0.201563 0.397764 -0.100000
v 0.201563 0.397764 0.100000
v 0.221250 0.400028 -0.100000
v 0.221250 0.400028 0.100000
v 0.239063 0.403750 -0.100000
v 0.239063 0.403750 0.100000
v 0.255000 0.408889 -0.100000
v 0.255000 0.408889 0.100000
v 0.269063 0.415403 -0.100000
v 0.269063 0.415403 0.100000
v 0.281250 0.423250 -0.100000
v 0.281250 0.423250 0.100000
v 0.291563 0.432389 -0.100000
v 0.291563 0.432389 0.100000
v 0.300000 0.442778 -0.100000
v 0.300000 0.442778 0.100000
v 0.306563 0.454375 -0.100000
v 0.306563 0.454375 0.100000
v 0.311250 0.467139 -0.100000
v 0.311250 0.467139 0.100000
v 0.314063 0.481028 -0.100000
v 0.314063 0.481028 0.100000
v 0.315000 0.496000 -0.100000
v 0.315000 0.496000 0.100000
v 0.314053 0.511241 -0.100000
v 0.314053 0.511241 0.100000
v 0.311259 0.525431 -0.100000
v 0.311259 0.525431 0.100000
v 0.306688 0.538516 -0.100000
v 0.306688 0.538516 0.100000
v 0.300407 0.550444 -0.100000
v 0.300407 0.550444 0.100000
v 0.292488 0.561165 -0.100000
v 0.292488 0.561165 0.100000
v 0.283000 0.570625 -0.100000
v 0.283000 0.570625 0.100000
v 0.272012 0.578773 -0.100000
v 0.272012 0.578773 0.100000
v 0.259593 0.585556 -0.100000
v 0.259593 0.585556 0.100000
v 0.245813 0.590922 -0.100000
v 0.245813 0.590922 0.100000
v 0.230741 0.594819 -0.100000
v 0.230741 0.594819 0.100000
v 0.214447 0.597196 -0.100000
v 0.214447 0.597196 0.100000
v 0.197000 0.598000 -0.100000
v 0.197000 0.598000 0.100000
v 0.187843 0.597830 -0.100000
v 0.187843 0.597830 0.100000
v 0.178824 0.597310 -0.100000
v 0.178824 0.597310 0.100000
v 0.169875 0.596422 -0.100000
v 0.169875 0.596422 0.100000
v 0.160926 0.595148 -0.100000
v 0.160926 0.595148 0.100000
v 0.151907 0.593472 -0.100000
v 0.151907 0.593472 0.100000
v 0.142750 0.591375 -0.100000
v 0.142750 0.591375 0.100000
v 0.133384 0.588841 -0.100000
v 0.133384 0.588841 0.100000
v 0.123741 0.585852 -0.100000
v 0.123741 0.585852 0.100000
v 0.113750 0.582391 -0.100000
v 0.113750 0.582391 0.100000
v 0.103343 0.578440 -0.100000
v 0.103343 0.578440 0.100000
v 0.092449 0.573982 -0.100000
v 0.092449 0.573982 0.100000
v 0.081000 0.569000 -0.100000
v 0.081000 0.569000 0.100000
v 0.081000 0.662000 -0.100000
v 0.081000 0.662000 0.100000
vt 0.068493 0.000000
vt 0.082192 0.000000
vt 0.075342 0.000000
vt 0.061644 0.000000
vt 0.054795 0.000000
vt 0.089041 0.000000
vt 0.047945 0.000000
vt 0.041096 0.000000
vt 0.034247 0.000000
vt 0.095890 0.000000
vt 0.027397 0.000000
vt 0.020548 0.000000
vt 0.013699 0.000000
vt 0.102740 0.000000
vt 0.006849 0.000000
vt 0.000000 0.000000
vt 0.109589 0.000000
vt 1.000000 0.000000
vt 0.993151 0.000000
vt 0.986301 0.000000
vt 0.979452 0.000000
vt 0.972603 0.000000
vt 0.965753 0.000000
vt 0.958904 0.000000
vt 0.952055 0.000000
vt 0.116438 0.000000
vt 0.945205 0.000000
vt 0.938356 0.000000
vt 0.123288 0.000000
vt 0.931507 0.000000
vt 0.924658 0.000000
vt 0.917808 0.000000
vt 0.130137 0.000000
vt 0.910959 0.000000
vt 0.904110 0.000000
vt 0.136986 0.000000
vt 0.897260 0.000000
vt 0.890411 0.000000
vt 0.883562 0.000000
vt 0.143836 0.000000
vt 0.876712 0.000000
vt 0.869863 0.000000
vt 0.863014 0.000000
vt 0.150685 0.000000
vt 0.856164 0.000000
vt 0.849315 0.000000
vt 0.157534 0.000000
vt 0.842466 0.000000
vt 0.835616 0.000000
vt 0.164384 0.000000
vt 0.828767 0.000000
vt 0.821918 0.000000
vt 0.171233 0.000000
vt 0.815068 0.000000
vt 0.178082 0.000000
vt 0.808219 0.000000
vt 0.184932 0.000000
vt 0.801370 0.000000
vt 0.191781 0.000000
vt 0.794521 0.000000
vt 0.198630 0.000000
vt 0.787671 0.000000
vt 0.780822 0.000000
vt 0.205479 0.000000
vt 0.773973 0.000000
vt 0.212329 0.000000
vt 0.767123 0.000000
vt 0.760274 0.000000
vt 0.753425 0.000000
vt 0.219178 0.000000
vt 0.746575 0.000000
vt 0.739726 0.000000
vt 0.226027 0.000000
vt 0.232877 0.000000
vt 0.239726 0.000000
vt 0.246575 0.000000
vt 0.253425 0.000000
vt 0.260274 0.000000
vt 0.267123 0.000000
vt 0.273973 0.000000
vt 0.732877 0.000000
vt 0.280822 0.000000
vt 0.726027 0.000000
vt 0.719178 0.000000
vt 0.712329 0.000000
vt 0.287671 0.000000
vt 0.705479 0.000000
vt 0.698630 0.000000
vt 0.294521 0.000000
vt 0.691781 0.000000
vt 0.301370 0.000000
vt 0.684932 0.000000
vt 0.678082 0.000000
vt 0.308219 0.000000
vt 0.671233 0.000000
vt 0.315068 0.000000
vt 0.664384 0.000000
vt 0.321918 0.000000
vt 0.657534 0.000000
vt 0.328767 0.000000
vt 0.650685 0.000000
vt 0.643836 0.000000
vt 0.335616 0.000000
vt 0.636986 0.000000
vt 0.630137 0.000000
vt 0.342466 0.000000
vt 0.486301 0.000000
vt 0.500000 0.000000
vt 0.493151 0.000000
vt 0.623288 0.000000
vt 0.506849 0.000000
vt 0.616438 0.000000
vt 0.513699 0.000000
vt 0.349315 0.000000
vt 0.609589 0.000000
vt 0.520548 0.000000
vt 0.527397 0.000000
vt 0.602740 0.000000
vt 0.534247 0.000000
vt 0.595890 0.000000
vt 0.541096 0.000000
vt 0.547945 0.000000
vt 0.589041 0.000000
vt 0.356164 0.000000
vt 0.554795 0.000000
vt 0.582192 0.000000
vt 0.561644 0.000000
vt 0.568493 0.000000
vt 0.575342 0.000000
vt 0.363014 0.000000
vt 0.369863 0.000000
vt 0.376712 0.000000
vt 0.479452 0.000000
vt 0.472603 0.000000
vt 0.465753 0.000000
vt 0.383562 0.000000
vt 0.458904 0.000000
vt 0.452055 0.000000
vt 0.390411 0.000000
vt 0.445205 0.000000
vt 0.438356 0.000000
vt 0.431507 0.000000
vt 0.397260 0.000000
vt 0.424658 0.000000
vt 0.417808 0.000000
vt 0.404110 0.000000
vt 0.410959 0.000000
vt 0.082192 0.000000
vt 0.068493 0.000000
vt 0.075342 0.000000
vt 0.061644 0.000000
vt 0.054795 0.000000
vt 0.089041 0.000000
vt 0.047945 0.000000
vt 0.041096 0.000000
vt 0.034247 0.000000
vt 0.095890 0.000000
vt 0.027397 0.000000
vt 0.020548 0.000000
vt 0.013699 0.000000
vt 0.102740 0.000000
vt 0.006849 0.000000
vt 0.000000 0.000000
vt 0.109589 0.000000
vt 1.000000 0.000000
vt 0.986301 0.000000
vt 0.993151 0.000000
vt 0.979452 0.000000
vt 0.972603 0.000000
vt 0.965753 0.000000
vt 0.958904 0.000000
vt 0.952055 0.000000
vt 0.116438 0.000000
vt 0.945205 0.000000
vt 0.938356 0.000000
vt 0.123288 0.000000
vt 0.931507 0.000000
vt 0.924658 0.000000
vt 0.917808 0.000000
vt 0.130137 0.000000
vt 0.910959 0.000000
vt 0.904110 0.000000
vt 0.136986 0.000000
vt 0.897260 0.000000
vt 0.890411 0.000000
vt 0.883562 0.000000
vt 0.143836 0.000000
vt 0.876712 0.000000
vt 0.869863 0.000000
vt 0.863014 0.000000
vt 0.150685 0.000000
vt 0.856164 0.000000
vt 0.849315 0.000000
vt 0.157534 0.000000
vt 0.842466 0.000000
vt 0.835616 0.000000
vt 0.164384 0.000000
vt 0.828767 0.000000
vt 0.821918 0.000000
vt 0.171233 0.000000
vt 0.815068 0.000000
vt 0.178082 0.000000
vt 0.808219 0.000000
vt 0.184932 0.000000
vt 0.801370 0.000000
vt 0.191781 0.000000
vt 0.794521 0.000000
vt 0.198630 0.000000
vt 0.787671 0.000000
vt 0.780822 0.000000
vt 0.205479 0.000000
vt 0.773973 0.000000
vt 0.212329 0.000000
vt 0.767123 0.000000
vt 0.760274 0.000000
vt 0.753425 0.000000
vt 0.219178 0.000000
vt 0.746575 0.000000
vt 0.739726 0.000000
vt 0.226027 0.000000
vt 0.232877 0.000000
vt 0.239726 0.000000
vt 0.246575 0.000000
vt 0.253425 0.000000
vt 0.260274 0.000000
vt 0.267123 0.000000
vt 0.273973 0.000000
vt 0.732877 0.000000
vt 0.280822 0.000000
vt 0.726027 0.000000
vt 0.719178 0.000000
vt 0.712329 0.000000
vt 0.287671 0.000000
vt 0.705479 0.000000
vt 0.698630 0.000000
vt 0.294521 0.000000
vt 0.691781 0.000000
vt 0.301370 0.000000
vt 0.684932 0.000000
vt 0.678082 0.000000
vt 0.308219 0.000000
vt 0.671233 0.000000
vt 0.315068 0.000000
vt 0.664384 0.000000
vt 0.321918 0.000000
vt 0.657534 0.000000
vt 0.328767 0.000000
vt 0.650685 0.000000
vt 0.643836 0.000000
vt 0.335616 0.000000
vt 0.636986 0.000000
vt 0.630137 0.000000
vt 0.342466 0.000000
vt 0.500000 0.000000
vt 0.486301 0.000000
vt 0.493151 0.000000
vt 0.623288 0.000000
vt 0.506849 0.000000
vt 0.616438 0.000000
vt 0.513699 0.000000
vt 0.349315 0.000000
vt 0.609589 0.000000
vt 0.520548 0.000000
vt 0.527397 0.000000
vt 0.602740 0.000000
vt 0.534247 0.000000
vt 0.595890 0.000000
vt 0.541096 0.000000
vt 0.547945 0.000000
vt 0.589041 0.000000
vt 0.356164 0.000000
vt 0.554795 0.000000
vt 0.582192 0.000000
vt 0.561644 0.000000
vt 0.568493 0.000000
vt 0.575342 0.000000
vt 0.363014 0.000000
vt 0.369863 0.000000
vt 0.376712 0.000000
vt 0.479452 0.000000
vt 0.472603 0.000000
vt 0.465753 0.000000
vt 0.383562 0.000000
vt 0.458904 0.000000
vt 0.452055 0.000000
vt 0.390411 0.000000
vt 0.445205 0.000000
vt 0.438356 0.000000
vt 0.431507 0.000000
vt 0.397260 0.000000
vt 0.424658 0.000000
vt 0.417808 0.000000
vt 0.404110 0.000000
vt 0.410959 0.000000
vt 0.000000 1.000000
vt 0.006803 1.000000
vt 0.006803 0.000000
vt 0.000000 0.000000
vt 0.013605 1.000000
vt 0.013605 0.000000
vt 0.020408 1.000000
vt 0.020408 0.000000
vt 0.027211 1.000000
vt 0.027211 0.000000
vt 0.034014 1.000000
vt 0.034014 0.000000
vt 0.040816 1.000000
vt 0.040816 0.000000
vt 0.047619 1.000000
vt 0.047619 0.000000
vt 0.054422 1.000000
vt 0.054422 0.000000
vt 0.061224 1.000000
vt 0.061224 0.000000
vt 0.068027 1.000000
vt 0.068027 0.000000
vt 0.074830 1.000000
vt 0.074830 0.000000
vt 0.081633 1.000000
vt 0.081633 0.000000
vt 0.088435 1.000000
vt 0.088435 0.000000
vt 0.095238 1.000000
vt 0.095238 0.000000
vt 0.102041 1.000000
vt 0.102041 0.000000
vt 0.108844 1.000000
vt 0.108844 0.000000
vt 0.115646 1.000000
vt 0.115646 0.000000
vt 0.122449 1.000000
vt 0.122449 0.000000
vt 0.129252 1.000000
vt 0.129252 0.000000
vt 0.136054 1.000000
vt 0.136054 0.000000
vt 0.142857 1.000000
vt 0.142857 0.000000
vt 0.149660 1.000000
vt 0.149660 0.000000
vt 0.156463 1.000000
vt 0.156463 0.000000
vt 0.163265 1.000000
vt 0.163265 0.000000
vt 0.170068 1.000000
vt 0.170068 0.000000
vt 0.176871 1.000000
vt 0.176871 0.000000
vt 0.183673 1.000000
vt 0.183673 0.000000
vt 0.190476 1.000000
vt 0.190476 0.000000
vt 0.197279 1.000000
vt 0.197279 0.000000
vt 0.204082 1.000000
vt 0.204082 0.000000
vt 0.210884 1.000000
vt 0.210884 0.000000
vt 0.217687 1.000000
vt 0.217687 0.000000
vt 0.224490 1.000000
vt 0.224490 0.000000
vt 0.231293 1.000000
vt 0.231293 0.000000
vt 0.238095 1.000000
vt 0.238095 0.000000
vt 0.244898 1.000000
vt 0.244898 0.000000
vt 0.251701 1.000000
vt 0.251701 0.000000
vt 0.258503 1.000000
vt 0.258503 0.000000
vt 0.265306 1.000000
vt 0.265306 0.000000
vt 0.272109 1.000000
vt 0.272109 0.000000
vt 0.278912 1.000000
vt 0.278912 0.000000
vt 0.285714 1.000000
vt 0.285714 0.000000
vt 0.292517 1.000000
vt 0.292517 0.000000
vt 0.299320 1.000000
vt 0.299320 0.000000
vt 0.306122 1.000000
vt 0.306122 0.000000
vt 0.312925 1.000000
vt 0.312925 0.000000
vt 0.319728 1.000000
vt 0.319728 0.000000
vt 0.326531 1.000000
vt 0.326531 0.000000
vt 0.333333 1.000000
vt 0.333333 0.000000
vt 0.340136 1.000000
vt 0.340136 0.000000
vt 0.346939 1.000000
vt 0.346939 0.000000
vt 0.353741 1.000000
vt 0.353741 0.000000
vt 0.360544 1.000000
vt 0.360544 0.000000
vt 0.367347 1.000000
vt 0.367347 0.000000
vt 0.374150 1.000000
vt 0.374150 0.000000
vt 0.380952 1.000000
vt 0.380952 0.000000
vt 0.387755 1.000000
vt 0.387755 0.000000
vt 0.394558 1.000000
vt 0.394558 0.000000
vt 0.401361 1.000000
vt 0.401361 0.000000
vt 0.408163 1.000000
vt 0.408163 0.000000
vt 0.414966 1.000000
vt 0.414966 0.000000
vt 0.421769 1.000000
vt 0.421769 0.000000
vt 0.428571 1.000000
vt 0.428571 0.000000
vt 0.435374 1.000000
vt 0.435374 0.000000
vt 0.442177 1.000000
vt 0.442177 0.000000
vt 0.448980 1.000000
vt 0.448980 0.000000
vt 0.455782 1.000000
vt 0.455782 0.000000
vt 0.462585 1.000000
vt 0.462585 0.000000
vt 0.469388 1.000000
vt 0.469388 0.000000
vt 0.476190 1.000000
vt 0.476190 0.000000
vt 0.482993 1.000000
vt 0.482993 0.000000
vt 0.489796 1.000000
vt 0.489796 0.000000
vt 0.496599 1.000000
vt 0.496599 0.000000
vt 0.503401 1.000000
vt 0.503401 0.000000
vt 0.510204 1.000000
vt 0.510204 0.000000
vt 0.517007 1.000000
vt 0.517007 0.000000
vt 0.523810 1.000000
vt 0.523810 0.000000
vt 0.530612 1.000000
vt 0.530612 0.000000
vt 0.537415 1.000000
vt 0.537415 0.000000
vt 0.544218 1.000000
vt 0.544218 0.000000
vt 0.551020 1.000000
vt 0.551020 0.000000
vt 0.557823 1.000000
vt 0.557823 0.000000
vt 0.564626 1.000000
vt 0.564626 0.000000
vt 0.571429 1.000000
vt 0.571429 0.000000
vt 0.578231 1.000000
vt 0.578231 0.000000
vt 0.585034 1.000000
vt 0.585034 0.000000
vt 0.591837 1.000000
vt 0.591837 0.000000
vt 0.598639 1.000000
vt 0.598639 0.000000
vt 0.605442 1.000000
vt 0.605442 0.000000
vt 0.612245 1.000000
vt 0.612245 0.000000
vt 0.619048 1.000000
vt 0.619048 0.000000
vt 0.625850 1.000000
vt 0.625850 0.000000
vt 0.632653 1.000000
vt 0.632653 0.000000
vt 0.639456 1.000000
vt 0.639456 0.000000
vt 0.646259 1.000000
vt 0.646259 0.000000
vt 0.653061 1.000000
vt 0.653061 0.000000
vt 0.659864 1.000000
vt 0.659864 0.000000
vt 0.666667 1.000000
vt 0.666667 0.000000
vt 0.673469 1.000000
vt 0.673469 0.000000
vt 0.680272 1.000000
vt 0.680272 0.000000
vt 0.687075 1.000000
vt 0.687075 0.000000
vt 0.693878 1.000000
vt 0.693878 0.000000
vt 0.700680 1.000000
vt 0.700680 0.000000
vt 0.707483 1.000000
vt 0.707483 0.000000
vt 0.714286 1.000000
vt 0.714286 0.000000
vt 0.721088 1.000000
vt 0.721088 0.000000
vt 0.727891 1.000000
vt 0.727891 0.000000
vt 0.734694 1.000000
vt 0.734694 0.000000
vt 0.741497 1.000000
vt 0.741497 0.000000
vt 0.748299 1.000000
vt 0.748299 0.000000
vt 0.755102 1.000000
vt 0.755102 0.000000
vt 0.761905 1.000000
vt 0.761905 0.000000
vt 0.768707 1.000000
vt 0.768707 0.000000
vt 0.775510 1.000000
vt 0.775510 0.000000
vt 0.782313 1.000000
vt 0.782313 0.000000
vt 0.789116 1.000000
vt 0.789116 0.000000
vt 0.795918 1.000000
vt 0.795918 0.000000
vt 0.802721 1.000000
vt 0.802721 0.000000
vt 0.809524 1.000000
vt 0.809524 0.000000
vt 0.816327 1.000000
vt 0.816327 0.000000
vt 0.823129 1.000000
vt 0.823129 0.000000
vt 0.829932 1.000000
vt 0.829932 0.000000
vt 0.836735 1.000000
vt 0.836735 0.000000
vt 0.843537 1.000000
vt 0.843537 0.000000
vt 0.850340 1.000000
vt 0.850340 0.000000
vt 0.857143 1.000000
vt 0.857143 0.000000
vt 0.863946 1.000000
vt 0.863946 0.000000
vt 0.870748 1.000000
vt 0.870748 0.000000
vt 0.877551 1.000000
vt 0.877551 0.000000
vt 0.884354 1.000000
vt 0.884354 0.000000
vt 0.891156 1.000000
vt 0.891156 0.000000
vt 0.897959 1.000000
vt 0.897959 0.000000
vt 0.904762 1.000000
vt 0.904762 0.000000
vt 0.911565 1.000000
vt 0.911565 0.000000
vt 0.918367 1.000000
vt 0.918367 0.000000
vt 0.925170 1.000000
vt 0.925170 0.000000
vt 0.931973 1.000000
vt 0.931973 0.000000
vt 0.938776 1.000000
vt 0.938776 0.000000
vt 0.945578 1.000000
vt 0.945578 0.000000
vt 0.952381 1.000000
vt 0.952381 0.000000
vt 0.959184 1.000000
vt 0.959184 0.000000
vt 0.965986 1.000000
vt 0.965986 0.000000
vt 0.972789 1.000000
vt 0.972789 0.000000
vt 0.979592 1.000000
vt 0.979592 0.000000
vt 0.986395 1.000000
vt 0.986395 0.000000
vt 0.993197 1.000000
vt 0.993197 0.000000
vt 1.000000 1.000000
vt 1.000000 0.000000
vn 0.0000 0.0000 1.0000
vn 0.0000 0.0000 -1.0000
vn -0.4070 0.9134 0.0000
vn -0.3731 0.9278 0.0000
vn -0.3366 0.9416 0.0000
vn -0.2983 0.9545 0.0000
vn -0.2586 0.9660 0.0000
vn -0.2182 0.9759 0.0000
vn -0.1779 0.9840 0.0000
vn -0.1385 0.9904 0.0000
vn -0.1006 0.9949 0.0000
vn -0.0647 0.9979 0.0000
vn -0.0312 0.9995 0.0000
vn 0.0168 0.9998 0.0000
vn 0.1003 0.9949 0.0000
vn 0.2069 0.9784 0.0000
vn 0.3193 0.9476 0.0000
vn 0.4355 0.9002 0.0000
vn 0.5518 0.8339 0.0000
vn 0.6635 0.7482 0.0000
vn 0.7652 0.6438 0.0000
vn 0.8517 0.5240 0.0000
vn 0.9191 0.3940 0.0000
vn 0.9656 0.2598 0.0000
vn 0.9919 0.1272 0.0000
vn 0.9998 0.0166 0.0000
vn 0.9981 -0.0615 0.0000
vn 0.9912 -0.1323 0.0000
vn 0.9769 -0.2137 0.0000
vn 0.9527 -0.3039 0.0000
vn 0.9166 -0.3997 0.0000
vn 0.8681 -0.4963 0.0000
vn 0.8087 -0.5882 0.0000
vn 0.7417 -0.6708 0.0000
vn 0.6716 -0.7409 0.0000
vn 0.6029 -0.7978 0.0000
vn 0.5391 -0.8422 0.0000
vn 0.9966 0.0823 0.0000
vn 0.4246 0.9054 0.0000
vn 0.5456 0.8380 0.0000
vn 0.6532 0.7572 0.0000
vn 0.7441 0.6680 0.0000
vn 0.8180 0.5752 0.0000
vn 0.8758 0.4827 0.0000
vn 0.9196 0.3929 0.0000
vn 0.9517 0.3070 0.0000
vn 0.9743 0.2252 0.0000
vn 0.9891 0.1473 0.0000
vn 0.9973 0.0726 0.0000
vn 0.9999 -0.0127 0.0000
vn 0.9922 -0.1248 0.0000
vn 0.9676 -0.2524 0.0000
vn 0.9250 -0.3799 0.0000
vn 0.8642 -0.5032 0.0000
vn 0.7861 -0.6181 0.0000
vn 0.6929 -0.7210 0.0000
vn 0.5875 -0.8092 0.0000
vn 0.4736 -0.8807 0.0000
vn 0.3547 -0.9349 0.0000
vn 0.2344 -0.9721 0.0000
vn 0.1155 -0.9933 0.0000
vn 0.0161 -0.9998 0.0000
vn -0.0486 -0.9988 0.0000
vn -0.0956 -0.9954 0.0000
vn -0.1406 -0.9901 0.0000
vn -0.1836 -0.9830 0.0000
vn -0.2245 -0.9745 0.0000
vn -0.2633 -0.9647 0.0000
vn -0.3000 -0.9539 0.0000
vn -0.3346 -0.9424 0.0000
vn -0.3673 -0.9301 0.0000
vn -0.3981 -0.9174 0.0000
vn -0.4270 -0.9042 0.0000
vn -0.8488 -0.5286 0.0000
vn -0.4781 0.8783 0.0000
vn 0.5263 0.8503 0.0000
vn 0.4915 0.8708 0.0000
vn 0.4539 0.8910 0.0000
vn 0.4132 0.9106 0.0000
vn 0.3695 0.9292 0.0000
vn 0.3230 0.9464 0.0000
vn 0.2737 0.9618 0.0000
vn 0.2220 0.9750 0.0000
vn 0.1682 0.9857 0.0000
vn 0.1129 0.9936 0.0000
vn 0.0567 0.9984 0.0000
vn -0.0130 0.9999 0.0000
vn -0.1120 0.9937 0.0000
vn -0.2302 0.9731 0.0000
vn -0.3529 0.9356 0.0000
vn -0.4763 0.8793 0.0000
vn -0.5954 0.8034 0.0000
vn -0.7048 0.7094 0.0000
vn -0.7997 0.6004 0.0000
vn -0.8766 0.4812 0.0000
vn -0.9340 0.3571 0.0000
vn -0.9724 0.2333 0.0000
vn -0.9935 0.1136 0.0000
vn -1.0000 -0.0034 0.0000
vn -0.9919 -0.1272 0.0000
vn -0.9656 -0.2600 0.0000
vn -0.9184 -0.3957 0.0000
vn -0.8487 -0.5288 0.0000
vn -0.7575 -0.6528 0.0000
vn -0.6484 -0.7613 0.0000
vn -0.5272 -0.8497 0.0000
vn -0.4010 -0.9160 0.0000
vn -0.2762 -0.9611 0.0000
vn -0.1577 -0.9875 0.0000
vn -0.0483 -0.9988 0.0000
vn -0.7058 -0.7084 0.0000
vn -0.7195 0.6944 0.0000
vn -0.0749 0.9972 0.0000
vn -0.1596 0.9872 0.0000
vn -0.2561 0.9666 0.0000
vn -0.3643 0.9313 0.0000
vn -0.4820 0.8762 0.0000
vn -0.6041 0.7969 0.0000
vn -0.7221 0.6917 0.0000
vn -0.8261 0.5634 0.0000
vn -0.9075 0.4200 0.0000
vn -0.9622 0.2724 0.0000
vn -0.9914 0.1308 0.0000
vn -1.0000 0.0002 0.0000
vn -0.9918 -0.1279 0.0000
vn -0.9650 -0.2622 0.0000
vn -0.9170 -0.3989 0.0000
vn -0.8470 -0.5315 0.0000
vn -0.7573 -0.6530 0.0000
vn -0.6525 -0.7577 0.0000
vn -0.5387 -0.8424 0.0000
vn -0.4220 -0.9066 0.0000
vn -0.3071 -0.9516 0.0000
vn -0.1976 -0.9803 0.0000
vn -0.0953 -0.9954 0.0000
vn -0.0137 -0.9999 0.0000
vn 0.0381 -0.9993 0.0000
vn 0.0782 -0.9969 0.0000
vn 0.1198 -0.9928 0.0000
vn 0.1619 -0.9868 0.0000
vn 0.2030 -0.9792 0.0000
vn 0.2422 -0.9702 0.0000
vn 0.2787 -0.9604 0.0000
vn 0.3117 -0.9502 0.0000
vn 0.3412 -0.9400 0.0000
vn 0.3668 -0.9303 0.0000
vn 0.3889 -0.9213 0.0000
vn -0.5482 -0.8364 0.0000
vn -0.8435 0.5370 0.0000
usemtl None
s off
f 11/1/1 13/2/1 12/3/1
f 10/4/1 13/2/1 11/1/1
f 9/5/1 13/2/1 10/4/1
f 9/5/1 14/6/1 13/2/1
f 8/7/1 14/6/1 9/5/1
f 7/8/1 14/6/1 8/7/1
f 6/9/1 14/6/1 7/8/1
f 6/9/1 15/10/1 14/6/1
f 5/11/1 15/10/1 6/9/1
f 4/12/1 15/10/1 5/11/1
f 3/13/1 15/10/1 4/12/1
f 3/13/1 16/14/1 15/10/1
f 2/15/1 16/14/1 3/13/1
f 1/16/1 16/14/1 2/15/1
f 1/16/1 17/17/1 16/14/1
f 147/18/1 17/17/1 1/16/1
f 146/19/1 145/20/1 147/18/1
f 145/20/1 144/21/1 147/18/1
f 144/21/1 143/22/1 147/18/1
f 143/22/1 142/23/1 147/18/1
f 142/23/1 17/17/1 147/18/1
f 142/23/1 141/24/1 17/17/1
f 141/24/1 140/25/1 17/17/1
f 140/25/1 18/26/1 17/17/1
f 140/25/1 139/27/1 18/26/1
f 139/27/1 138/28/1 18/26/1
f 138/28/1 19/29/1 18/26/1
f 138/28/1 137/30/1 19/29/1
f 137/30/1 136/31/1 19/29/1
f 136/31/1 135/32/1 19/29/1
f 135/32/1 20/33/1 19/29/1
f 135/32/1 134/34/1 20/33/1
f 134/34/1 133/35/1 20/33/1
f 133/35/1 21/36/1 20/33/1
f 132/37/1 21/36/1 133/35/1
f 131/38/1 21/36/1 132/37/1
f 130/39/1 21/36/1 131/38/1
f 130/39/1 22/40/1 21/36/1
f 129/41/1 22/40/1 130/39/1
f 128/42/1 22/40/1 129/41/1
f 127/43/1 22/40/1 128/42/1
f 127/43/1 23/44/1 22/40/1
f 126/45/1 23/44/1 127/43/1
f 125/46/1 23/44/1 126/45/1
f 125/46/1 24/47/1 23/44/1
f 124/48/1 24/47/1 125/46/1
f 123/49/1 24/47/1 124/48/1
f 123/49/1 25/50/1 24/47/1
f 122/51/1 25/50/1 123/49/1
f 121/52/1 25/50/1 122/51/1
f 121/52/1 26/53/1 25/50/1
f 120/54/1 26/53/1 121/52/1
f 120/54/1 27/55/1 26/53/1
f 119/56/1 27/55/1 120/54/1
f 119/56/1 28/57/1 27/55/1
f 118/58/1 28/57/1 119/56/1
f 118/58/1 29/59/1 28/57/1
f 117/60/1 29/59/1 118/58/1
f 117/60/1 30/61/1 29/59/1
f 116/62/1 30/61/1 117/60/1
f 115/63/1 30/61/1 116/62/1
f 115/63/1 31/64/1 30/61/1
f 114/65/1 31/64/1 115/63/1
f 114/65/1 32/66/1 31/64/1
f 113/67/1 32/66/1 114/65/1
f 112/68/1 32/66/1 113/67/1
f 111/69/1 32/66/1 112/68/1
f 111/69/1 33/70/1 32/66/1
f 110/71/1 33/70/1 111/69/1
f 109/72/1 33/70/1 110/71/1
f 109/72/1 34/73/1 33/70/1
f 109/72/1 35/74/1 34/73/1
f 109/72/1 36/75/1 35/74/1
f 109/72/1 37/76/1 36/75/1
f 109/72/1 38/77/1 37/76/1
f 109/72/1 39/78/1 38/77/1
f 109/72/1 40/79/1 39/78/1
f 109/72/1 41/80/1 40/79/1
f 109/72/1 108/81/1 41/80/1
f 108/81/1 42/82/1 41/80/1
f 107/83/1 42/82/1 108/81/1
f 106/84/1 42/82/1 107/83/1
f 105/85/1 42/82/1 106/84/1
f 105/85/1 43/86/1 42/82/1
f 104/87/1 43/86/1 105/85/1
f 103/88/1 43/86/1 104/87/1
f 103/88/1 44/89/1 43/86/1
f 102/90/1 44/89/1 103/88/1
f 102/90/1 45/91/1 44/89/1
f 101/92/1 45/91/1 102/90/1
f 100/93/1 45/91/1 101/92/1
f 100/93/1 46/94/1 45/91/1
f 99/95/1 46/94/1 100/93/1
f 99/95/1 47/96/1 46/94/1
f 98/97/1 47/96/1 99/95/1
f 98/97/1 48/98/1 47/96/1
f 97/99/1 48/98/1 98/97/1
f 97/99/1 49/100/1 48/98/1
f 96/101/1 49/100/1 97/99/1
f 95/102/1 49/100/1 96/101/1
f 95/102/1 50/103/1 49/100/1
f 94/104/1 50/103/1 95/102/1
f 93/105/1 50/103/1 94/104/1
f 93/105/1 51/106/1 50/103/1
f 72/107/1 74/108/1 73/109/1
f 92/110/1 51/106/1 93/105/1
f 72/107/1 75/111/1 74/108/1
f 91/112/1 51/106/1 92/110/1
f 72/107/1 76/113/1 75/111/1
f 91/112/1 52/114/1 51/106/1
f 90/115/1 52/114/1 91/112/1
f 72/107/1 77/116/1 76/113/1
f 72/107/1 78/117/1 77/116/1
f 89/118/1 52/114/1 90/115/1
f 72/107/1 79/119/1 78/117/1
f 88/120/1 52/114/1 89/118/1
f 72/107/1 80/121/1 79/119/1
f 72/107/1 81/122/1 80/121/1
f 87/123/1 52/114/1 88/120/1
f 87/123/1 53/124/1 52/114/1
f 72/107/1 82/125/1 81/122/1
f 86/126/1 53/124/1 87/123/1
f 72/107/1 83/127/1 82/125/1
f 72/107/1 84/128/1 83/127/1
f 85/129/1 53/124/1 86/126/1
f 72/107/1 85/129/1 84/128/1
f 72/107/1 53/124/1 85/129/1
f 72/107/1 54/130/1 53/124/1
f 72/107/1 55/131/1 54/130/1
f 72/107/1 56/132/1 55/131/1
f 71/133/1 56/132/1 72/107/1
f 70/134/1 56/132/1 71/133/1
f 69/135/1 56/132/1 70/134/1
f 69/135/1 57/136/1 56/132/1
f 68/137/1 57/136/1 69/135/1
f 67/138/1 57/136/1 68/137/1
f 67/138/1 58/139/1 57/136/1
f 66/140/1 58/139/1 67/138/1
f 65/141/1 58/139/1 66/140/1
f 64/142/1 58/139/1 65/141/1
f 64/142/1 59/143/1 58/139/1
f 63/144/1 59/143/1 64/142/1
f 62/145/1 59/143/1 63/144/1
f 62/145/1 60/146/1 59/143/1
f 61/147/1 60/146/1 62/145/1
f 160/148/2 158/149/2 159/150/2
f 160/148/2 157/151/2 158/149/2
f 160/148/2 156/152/2 157/151/2
f 161/153/2 156/152/2 160/148/2
f 161/153/2 155/154/2 156/152/2
f 161/153/2 154/155/2 155/154/2
f 161/153/2 153/156/2 154/155/2
f 162/157/2 153/156/2 161/153/2
f 162/157/2 152/158/2 153/156/2
f 162/157/2 151/159/2 152/158/2
f 162/157/2 150/160/2 151/159/2
f 163/161/2 150/160/2 162/157/2
f 163/161/2 149/162/2 150/160/2
f 163/161/2 148/163/2 149/162/2
f 164/164/2 148/163/2 163/161/2
f 164/164/2 294/165/2 148/163/2
f 292/166/2 293/167/2 294/165/2
f 291/168/2 292/166/2 294/165/2
f 290/169/2 291/168/2 294/165/2
f 289/170/2 290/169/2 294/165/2
f 164/164/2 289/170/2 294/165/2
f 288/171/2 289/170/2 164/164/2
f 287/172/2 288/171/2 164/164/2
f 165/173/2 287/172/2 164/164/2
f 286/174/2 287/172/2 165/173/2
f 285/175/2 286/174/2 165/173/2
f 166/176/2 285/175/2 165/173/2
f 284/177/2 285/175/2 166/176/2
f 283/178/2 284/177/2 166/176/2
f 282/179/2 283/178/2 166/176/2
f 167/180/2 282/179/2 166/176/2
f 281/181/2 282/179/2 167/180/2
f 280/182/2 281/181/2 167/180/2
f 168/183/2 280/182/2 167/180/2
f 168/183/2 279/184/2 280/182/2
f 168/183/2 278/185/2 279/184/2
f 168/183/2 277/186/2 278/185/2
f 169/187/2 277/186/2 168/183/2
f 169/187/2 276/188/2 277/186/2
f 169/187/2 275/189/2 276/188/2
f 169/187/2 274/190/2 275/189/2
f 170/191/2 274/190/2 169/187/2
f 170/191/2 273/192/2 274/190/2
f 170/191/2 272/193/2 273/192/2
f 171/194/2 272/193/2 170/191/2
f 171/194/2 271/195/2 272/193/2
f 171/194/2 270/196/2 271/195/2
f 172/197/2 270/196/2 171/194/2
f 172/197/2 269/198/2 270/196/2
f 172/197/2 268/199/2 269/198/2
f 173/200/2 268/199/2 172/197/2
f 173/200/2 267/201/2 268/199/2
f 174/202/2 267/201/2 173/200/2
f 174/202/2 266/203/2 267/201/2
f 175/204/2 266/203/2 174/202/2
f 175/204/2 265/205/2 266/203/2
f 176/206/2 265/205/2 175/204/2
f 176/206/2 264/207/2 265/205/2
f 177/208/2 264/207/2 176/206/2
f 177/208/2 263/209/2 264/207/2
f 177/208/2 262/210/2 263/209/2
f 178/211/2 262/210/2 177/208/2
f 178/211/2 261/212/2 262/210/2
f 179/213/2 261/212/2 178/211/2
f 179/213/2 260/214/2 261/212/2
f 179/213/2 259/215/2 260/214/2
f 179/213/2 258/216/2 259/215/2
f 180/217/2 258/216/2 179/213/2
f 180/217/2 257/218/2 258/216/2
f 180/217/2 256/219/2 257/218/2
f 181/220/2 256/219/2 180/217/2
f 182/221/2 256/219/2 181/220/2
f 183/222/2 256/219/2 182/221/2
f 184/223/2 256/219/2 183/222/2
f 185/224/2 256/219/2 184/223/2
f 186/225/2 256/219/2 185/224/2
f 187/226/2 256/219/2 186/225/2
f 188/227/2 256/219/2 187/226/2
f 255/228/2 256/219/2 188/227/2
f 189/229/2 255/228/2 188/227/2
f 189/229/2 254/230/2 255/228/2
f 189/229/2 253/231/2 254/230/2
f 189/229/2 252/232/2 253/231/2
f 190/233/2 252/232/2 189/229/2
f 190/233/2 251/234/2 252/232/2
f 190/233/2 250/235/2 251/234/2
f 191/236/2 250/235/2 190/233/2
f 191/236/2 249/237/2 250/235/2
f 192/238/2 249/237/2 191/236/2
f 192/238/2 248/239/2 249/237/2
f 192/238/2 247/240/2 248/239/2
f 193/241/2 247/240/2 192/238/2
f 193/241/2 246/242/2 247/240/2
f 194/243/2 246/242/2 193/241/2
f 194/243/2 245/244/2 246/242/2
f 195/245/2 245/244/2 194/243/2
f 195/245/2 244/246/2 245/244/2
f 196/247/2 244/246/2 195/245/2
f 196/247/2 243/248/2 244/246/2
f 196/247/2 242/249/2 243/248/2
f 197/250/2 242/249/2 196/247/2
f 197/250/2 241/251/2 242/249/2
f 197/250/2 240/252/2 241/251/2
f 198/253/2 240/252/2 197/250/2
f 221/254/2 219/255/2 220/256/2
f 198/253/2 239/257/2 240/252/2
f 222/258/2 219/255/2 221/254/2
f 198/253/2 238/259/2 239/257/2
f 223/260/2 219/255/2 222/258/2
f 199/261/2 238/259/2 198/253/2
f 199/261/2 237/262/2 238/259/2
f 224/263/2 219/255/2 223/260/2
f 225/264/2 219/255/2 224/263/2
f 199/261/2 236/265/2 237/262/2
f 226/266/2 219/255/2 225/264/2
f 199/261/2 235/267/2 236/265/2
f 227/268/2 219/255/2 226/266/2
f 228/269/2 219/255/2 227/268/2
f 199/261/2 234/270/2 235/267/2
f 200/271/2 234/270/2 199/261/2
f 229/272/2 219/255/2 228/269/2
f 200/271/2 233/273/2 234/270/2
f 230/274/2 219/255/2 229/272/2
f 231/275/2 219/255/2 230/274/2
f 200/271/2 232/276/2 233/273/2
f 232/276/2 219/255/2 231/275/2
f 200/271/2 219/255/2 232/276/2
f 201/277/2 219/255/2 200/271/2
f 202/278/2 219/255/2 201/277/2
f 203/279/2 219/255/2 202/278/2
f 203/279/2 218/280/2 219/255/2
f 203/279/2 217/281/2 218/280/2
f 203/279/2 216/282/2 217/281/2
f 204/283/2 216/282/2 203/279/2
f 204/283/2 215/284/2 216/282/2
f 204/283/2 214/285/2 215/284/2
f 205/286/2 214/285/2 204/283/2
f 205/286/2 213/287/2 214/285/2
f 205/286/2 212/288/2 213/287/2
f 205/286/2 211/289/2 212/288/2
f 206/290/2 211/289/2 205/286/2
f 206/290/2 210/291/2 211/289/2
f 206/290/2 209/292/2 210/291/2
f 207/293/2 209/292/2 206/290/2
f 207/293/2 208/294/2 209/292/2
s 1
f 296/295/3 298/296/4 297/297/4 295/298/3
f 298/296/4 300/299/5 299/300/5 297/297/4
f 300/299/5 302/301/6 301/302/6 299/300/5
f 302/301/6 304/303/7 303/304/7 301/302/6
f 304/303/7 306/305/8 305/306/8 303/304/7
f 306/305/8 308/307/9 307/308/9 305/306/8
f 308/307/9 310/309/10 309/310/10 307/308/9
f 310/309/10 312/311/11 311/312/11 309/310/10
f 312/311/11 314/313/12 313/314/12 311/312/11
f 314/313/12 316/315/13 315/316/13 313/314/12
f 316/315/13 318/317/14 317/318/14 315/316/13
f 318/317/14 320/319/15 319/320/15 317/318/14
f 320/319/15 322/321/16 321/322/16 319/320/15
f 322/321/16 324/323/17 323/324/17 321/322/16
f 324/323/17 326/325/18 325/326/18 323/324/17
f 326/325/18 328/327/19 327/328/19 325/326/18
f 328/327/19 330/329/20 329/330/20 327/328/19
f 330/329/20 332/331/21 331/332/21 329/330/20
f 332/331/21 334/333/22 333/334/22 331/332/21
f 334/333/22 336/335/23 335/336/23 333/334/22
f 336/335/23 338/337/24 337/338/24 335/336/23
f 338/337/24 340/339/25 339/340/25 337/338/24
f 340/339/25 342/341/26 341/342/26 339/340/25
f 342/341/26 344/343/27 343/344/27 341/342/26
f 344/343/27 346/345/28 345/346/28 343/344/27
f 346/345/28 348/347/29 347/348/29 345/346/28
f 348/347/29 350/349/30 349/350/30 347/348/29
f 350/349/30 352/351/31 351/352/31 349/350/30
f 352/351/31 354/353/32 353/354/32 351/352/31
f 354/353/32 356/355/33 355/356/33 353/354/32
f 356/355/33 358/357/34 357/358/34 355/356/33
f 358/357/34 360/359/35 359/360/35 357/358/34
f 360/359/35 362/361/36 361/362/36 359/360/35
f 362/361/36 364/363/37 363/364/37 361/362/36
f 364/363/37 366/365/38 365/366/38 363/364/37
f 366/365/38 368/367/39 367/368/39 365/366/38
f 368/367/39 370/369/40 369/370/40 367/368/39
f 370/369/40 372/371/41 371/372/41 369/370/40
f 372/371/41 374/373/42 373/374/42 371/372/41
f 374/373/42 376/375/43 375/376/43 373/374/42
f 376/375/43 378/377/44 377/378/44 375/376/43
f 378/377/44 380/379/45 379/380/45 377/378/44
f 380/379/45 382/381/46 381/382/46 379/380/45
f 382/381/46 384/383/47 383/384/47 381/382/46
f 384/383/47 386/385/48 385/386/48 383/384/47
f 386/385/48 388/387/49 387/388/49 385/386/48
f 388/387/49 390/389/50 389/390/50 387/388/49
f 390/389/50 392/391/51 391/392/51 389/390/50
f 392/391/51 394/393/52 393/394/52 391/392/51
f 394/393/52 396/395/53 395/396/53 393/394/52
f 396/395/53 398/397/54 397/398/54 395/396/53
f 398/397/54 400/399/55 399/400/55 397/398/54
f 400/399/55 402/401/56 401/402/56 399/400/55
f 402/401/56 404/403/57 403/404/57 401/402/56
f 404/403/57 406/405/58 405/406/58 403/404/57
f 406/405/58 408/407/59 407/408/59 405/406/58
f 408/407/59 410/409/60 409/410/60 407/408/59
f 410/409/60 412/411/61 411/412/61 409/410/60
f 412/411/61 414/413/62 413/414/62 411/412/61
f 414/413/62 416/415/63 415/416/63 413/414/62
f 416/415/63 418/417/64 417/418/64 415/416/63
f 418/417/64 420/419/65 419/420/65 417/418/64
f 420/419/65 422/421/66 421/422/66 419/420/65
f 422/421/66 424/423/67 423/424/67 421/422/66
f 424/423/67 426/425/68 425/426/68 423/424/67
f 426/425/68 428/427/69 427/428/69 425/426/68
f 428/427/69 430/429/70 429/430/70 427/428/69
f 430/429/70 432/431/71 431/432/71 429/430/70
f 432/431/71 434/433/72 433/434/72 431/432/71
f 434/433/72 436/435/73 435/436/73 433/434/72
f 436/435/73 438/437/74 437/438/74 435/436/73
f 438/437/74 440/439/75 439/440/75 437/438/74
f 440/439/75 442/441/76 441/442/76 439/440/75
f 442/441/76 444/443/77 443/444/77 441/442/76
f 444/443/77 446/445/78 445/446/78 443/444/77
f 446/445/78 448/447/79 447/448/79 445/446/78
f 448/447/79 450/449/80 449/450/80 447/448/79
f 450/449/80 452/451/81 451/452/81 449/450/80
f 452/451/81 454/453/82 453/454/82 451/452/81
f 454/453/82 456/455/83 455/456/83 453/454/82
f 456/455/83 458/457/84 457/458/84 455/456/83
f 458/457/84 460/459/85 459/460/85 457/458/84
f 460/459/85 462/461/86 461/462/86 459/460/85
f 462/461/86 464/463/87 463/464/87 461/462/86
f 464/463/87 466/465/88 465/466/88 463/464/87
f 466/465/88 468/467/89 467/468/89 465/466/88
f 468/467/89 470/469/90 469/470/90 467/468/89
f 470/469/90 472/471/91 471/472/91 469/470/90
f 472/471/91 474/473/92 473/474/92 471/472/91
f 474/473/92 476/475/93 475/476/93 473/474/92
f 476/475/93 478/477/94 477/478/94 475/476/93
f 478/477/94 480/479/95 479/480/95 477/478/94
f 480/479/95 482/481/96 481/482/96 479/480/95
f 482/481/96 484/483/97 483/484/97 481/482/96
f 484/483/97 486/485/98 485/486/98 483/484/97
f 486/485/98 488/487/99 487/488/99 485/486/98
f 488/487/99 490/489/100 489/490/100 487/488/99
f 490/489/100 492/491/101 491/492/101 489/490/100
f 492/491/101 494/493/102 493/494/102 491/492/101
f 494/493/102 496/495/103 495/496/103 493/494/102
f 496/495/103 498/497/104 497/498/104 495/496/103
f 498/497/104 500/499/105 499/500/105 497/498/104
f 500/499/105 502/501/106 501/502/106 499/500/105
f 502/501/106 504/503/107 503/504/107 501/502/106
f 504/503/107 506/505/108 505/506/108 503/504/107
f 506/505/108 508/507/109 507/508/109 505/506/108
f 508/507/109 510/509/110 509/510/110 507/508/109
f 510/509/110 512/511/111 511/512/111 509/510/110
f 512/511/111 514/513/112 513/514/112 511/512/111
f 514/513/112 516/515/113 515/516/113 513/514/112
f 516/515/113 518/517/114 517/518/114 515/516/113
f 518/517/114 520/519/115 519/520/115 517/518/114
f 520/519/115 522/521/116 521/522/116 519/520/115
f 522/521/116 524/523/117 523/524/117 521/522/116
f 524/523/117 526/525/118 525/526/118 523/524/117
f 526/525/118 528/527/119 527/528/119 525/526/118
f 528/527/119 530/529/120 529/530/120 527/528/119
f 530/529/120 532/531/121 531/532/121 529/530/120
f 532/531/121 534/533/122 533/534/122 531/532/121
f 534/533/122 536/535/123 535/536/123 533/534/122
f 536/535/123 538/537/124 537/538/124 535/536/123
f 538/537/124 540/539/125 539/540/125 537/538/124
f 540/539/125 542/541/126 541/542/126 539/540/125
f 542/541/126 544/543/127 543/544/127 541/542/126
f 544/543/127 546/545/128 545/546/128 543/544/127
f 546/545/128 548/547/129 547/548/129 545/546/128
f 548/547/129 550/549/130 549/550/130 547/548/129
f 550/549/130 552/551/131 551/552/131 549/550/130
f 552/551/131 554/553/132 553/554/132 551/552/131
f 554/553/132 556/555/133 555/556/133 553/554/132
f 556/555/133 558/557/134 557/558/134 555/556/133
f 558/557/134 560/559/135 559/560/135 557/558/134
f 560/559/135 562/561/136 561/562/136 559/560/135
f 562/561/136 564/563/137 563/564/137 561/562/136
f 564/563/137 566/565/138 565/566/138 563/564/137
f 566/565/138 568/567/139 567/568/139 565/566/138
f 568/567/139 570/569/140 569/570/140 567/568/139
f 570/569/140 572/571/141 571/572/141 569/570/140
f 572/571/141 574/573/142 573/574/142 571/572/141
f 574/573/142 576/575/143 575/576/143 573/574/142
f 576/575/143 578/577/144 577/578/144 575/576/143
f 578/577/144 580/579/145 579/580/145 577/578/144
f 580/579/145 582/581/146 581/582/146 579/580/145
f 582/581/146 584/583/147 583/584/147 581/582/146
f 584/583/147 586/585/148 585/586/148 583/584/147
f 586/585/148 588/587/149 587/588/149 585/586/148
f 588/587/149 296/589/3 295/590/3 587/588/149
