# Blender v2.82 (sub 7) OBJ File: ''
# www.blender.org
mtllib 61.mtl
o Text
v 0.528000 0.421000 0.100000
v 0.056000 0.421000 0.100000
v 0.056000 0.503000 0.100000
v 0.528000 0.503000 0.100000
v 0.528000 0.203000 0.100000
v 0.056000 0.203000 0.100000
v 0.056000 0.285000 0.100000
v 0.528000 0.285000 0.100000
v 0.528000 0.421000 -0.100000
v 0.056000 0.421000 -0.100000
v 0.056000 0.503000 -0.100000
v 0.528000 0.503000 -0.100000
v 0.528000 0.203000 -0.100000
v 0.056000 0.203000 -0.100000
v 0.056000 0.285000 -0.100000
v 0.528000 0.285000 -0.100000
v 0.528000 0.421000 -0.100000
v 0.528000 0.421000 0.100000
v 0.056000 0.421000 -0.100000
v 0.056000 0.421000 0.100000
v 0.056000 0.503000 -0.100000
v 0.056000 0.503000 0.100000
v 0.528000 0.503000 -0.100000
v 0.528000 0.503000 0.100000
v 0.528000 0.203000 -0.100000
v 0.528000 0.203000 0.100000
v 0.056000 0.203000 -0.100000
v 0.056000 0.203000 0.100000
v 0.056000 0.285000 -0.100000
v 0.056000 0.285000 0.100000
v 0.528000 0.285000 -0.100000
v 0.528000 0.285000 0.100000
vt 0.714286 0.000000
vt 1.000000 0.000000
vt 0.857143 0.000000
vt 0.571429 0.000000
vt 0.142857 0.000000
vt 0.428571 0.000000
vt 0.285714 0.000000
vt 0.000000 0.000000
vt 1.000000 0.000000
vt 0.714286 0.000000
vt 0.857143 0.000000
vt 0.571429 0.000000
vt 0.428571 0.000000
vt 0.142857 0.000000
vt 0.285714 0.000000
vt 0.000000 0.000000
vt 0.000000 1.000000
vt 0.250000 1.000000
vt 0.250000 0.000000
vt 0.000000 0.000000
vt 0.500000 1.000000
vt 0.500000 0.000000
vt 0.750000 1.000000
vt 0.750000 0.000000
vt 1.000000 1.000000
vt 1.000000 0.000000
vt 0.000000 1.000000
vt 0.250000 1.000000
vt 0.250000 0.000000
vt 0.000000 0.000000
vt 0.500000 1.000000
vt 0.500000 0.000000
vt 0.750000 1.000000
vt 0.750000 0.000000
vt 1.000000 1.000000
vt 1.000000 0.000000
vn 0.0000 0.0000 1.0000
vn 0.0000 0.0000 -1.0000
vn 0.7071 -0.7071 0.0000
vn -0.7071 -0.7071 0.0000
vn -0.7071 0.7071 0.0000
vn 0.7071 0.7071 0.0000
usemtl None
s off
f 6/1/1 8/2/1 7/3/1
f 6/1/1 5/4/1 8/2/1
f 2/5/1 4/6/1 3/7/1
f 2/5/1 1/8/1 4/6/1
f 16/9/2 14/10/2 15/11/2
f 13/12/2 14/10/2 16/9/2
f 12/13/2 10/14/2 11/15/2
f 9/16/2 10/14/2 12/13/2
s 1
f 18/17/3 20/18/4 19/19/4 17/20/3
f 20/18/4 22/21/5 21/22/5 19/19/4
f 22/21/5 24/23/6 23/24/6 21/22/5
f 24/23/6 18/25/3 17/26/3 23/24/6
f 26/27/3 28/28/4 27/29/4 25/30/3
f 28/28/4 30/31/5 29/32/5 27/29/4
f 30/31/5 32/33/6 31/34/6 29/32/5
f 32/33/6 26/35/3 25/36/3 31/34/6
