# Blender v2.82 (sub 7) OBJ File: ''
# www.blender.org
mtllib 82.mtl
o Text
v 0.282397 0.680495 0.100000
v 0.313509 0.676046 0.100000
v 0.342219 0.668750 0.100000
v 0.368407 0.658704 0.100000
v 0.391957 0.646005 0.100000
v 0.412750 0.630750 0.100000
v 0.430668 0.613037 0.100000
v 0.445593 0.592963 0.100000
v 0.457406 0.570625 0.100000
v 0.465991 0.546120 0.100000
v 0.471228 0.519546 0.100000
v 0.473000 0.491000 0.100000
v 0.472151 0.471673 0.100000
v 0.469625 0.453213 0.100000
v 0.465453 0.435656 0.100000
v 0.459667 0.419037 0.100000
v 0.452297 0.403390 0.100000
v 0.443375 0.388750 0.100000
v 0.432932 0.375152 0.100000
v 0.421000 0.362630 0.100000
v 0.407609 0.351219 0.100000
v 0.392792 0.340954 0.100000
v 0.376578 0.331869 0.100000
v 0.359000 0.324000 0.100000
v 0.374022 0.313292 0.100000
v 0.388176 0.301667 0.100000
v 0.401594 0.289125 0.100000
v 0.414407 0.275667 0.100000
v 0.426749 0.261292 0.100000
v 0.438750 0.246000 0.100000
v 0.450543 0.229792 0.100000
v 0.462259 0.212667 0.100000
v 0.474031 0.194625 0.100000
v 0.485991 0.175667 0.100000
v 0.498270 0.155792 0.100000
v 0.511000 0.135000 0.100000
v 0.518024 0.123712 0.100000
v 0.524695 0.113194 0.100000
v 0.531156 0.103219 0.100000
v 0.537556 0.093556 0.100000
v 0.544038 0.083976 0.100000
v 0.550750 0.074250 0.100000
v 0.557837 0.064149 0.100000
v 0.565445 0.053444 0.100000
v 0.573719 0.041906 0.100000
v 0.582806 0.029306 0.100000
v 0.592851 0.015413 0.100000
v 0.604000 0.000000 0.100000
v 0.487000 0.000000 0.100000
v 0.397000 0.140000 0.100000
v 0.375487 0.172479 0.100000
v 0.355815 0.200167 0.100000
v 0.337781 0.223437 0.100000
v 0.321185 0.242667 0.100000
v 0.305825 0.258229 0.100000
v 0.291500 0.270500 0.100000
v 0.278008 0.279854 0.100000
v 0.265148 0.286667 0.100000
v 0.252719 0.291313 0.100000
v 0.240519 0.294167 0.100000
v 0.228346 0.295604 0.100000
v 0.216000 0.296000 0.100000
v 0.175000 0.296000 0.100000
v 0.175000 0.000000 0.100000
v 0.077000 0.000000 0.100000
v 0.077000 0.682000 0.100000
v 0.249000 0.682000 0.100000
v 0.238000 0.384000 0.100000
v 0.262713 0.385095 0.100000
v 0.284454 0.388264 0.100000
v 0.303375 0.393328 0.100000
v 0.319630 0.400111 0.100000
v 0.333370 0.408436 0.100000
v 0.344750 0.418125 0.100000
v 0.353921 0.429002 0.100000
v 0.361037 0.440889 0.100000
v 0.366250 0.453609 0.100000
v 0.369713 0.466986 0.100000
v 0.371579 0.480842 0.100000
v 0.372000 0.495000 0.100000
v 0.370968 0.510471 0.100000
v 0.368324 0.524852 0.100000
v 0.364000 0.538094 0.100000
v 0.357926 0.550148 0.100000
v 0.350032 0.560966 0.100000
v 0.340250 0.570500 0.100000
v 0.328509 0.578700 0.100000
v 0.314741 0.585519 0.100000
v 0.298875 0.590906 0.100000
v 0.280843 0.594815 0.100000
v 0.260574 0.597196 0.100000
v 0.238000 0.598000 0.100000
v 0.175000 0.598000 0.100000
v 0.175000 0.384000 0.100000
v 0.282397 0.680495 -0.100000
v 0.313509 0.676046 -0.100000
v 0.342219 0.668750 -0.100000
v 0.368407 0.658704 -0.100000
v 0.391957 0.646005 -0.100000
v 0.412750 0.630750 -0.100000
v 0.430668 0.613037 -0.100000
v 0.445593 0.592963 -0.100000
v 0.457406 0.570625 -0.100000
v 0.465991 0.546120 -0.100000
v 0.471228 0.519546 -0.100000
v 0.473000 0.491000 -0.100000
v 0.472151 0.471673 -0.100000
v 0.469625 0.453213 -0.100000
v 0.465453 0.435656 -0.100000
v 0.459667 0.419037 -0.100000
v 0.452297 0.403390 -0.100000
v 0.443375 0.388750 -0.100000
v 0.432932 0.375152 -0.100000
v 0.421000 0.362630 -0.100000
v 0.407609 0.351219 -0.100000
v 0.392792 0.340954 -0.100000
v 0.376578 0.331869 -0.100000
v 0.359000 0.324000 -0.100000
v 0.374022 0.313292 -0.100000
v 0.388176 0.301667 -0.100000
v 0.401594 0.289125 -0.100000
v 0.414407 0.275667 -0.100000
v 0.426749 0.261292 -0.100000
v 0.438750 0.246000 -0.100000
v 0.450543 0.229792 -0.100000
v 0.462259 0.212667 -0.100000
v 0.474031 0.194625 -0.100000
v 0.485991 0.175667 -0.100000
v 0.498270 0.155792 -0.100000
v 0.511000 0.135000 -0.100000
v 0.518024 0.123712 -0.100000
v 0.524695 0.113194 -0.100000
v 0.531156 0.103219 -0.100000
v 0.537556 0.093556 -0.100000
v 0.544038 0.083976 -0.100000
v 0.550750 0.074250 -0.100000
v 0.557837 0.064149 -0.100000
v 0.565445 0.053444 -0.100000
v 0.573719 0.041906 -0.100000
v 0.582806 0.029306 -0.100000
v 0.592851 0.015413 -0.100000
v 0.604000 0.000000 -0.100000
v 0.487000 0.000000 -0.100000
v 0.397000 0.140000 -0.100000
v 0.375487 0.172479 -0.100000
v 0.355815 0.200167 -0.100000
v 0.337781 0.223437 -0.100000
v 0.321185 0.242667 -0.100000
v 0.305825 0.258229 -0.100000
v 0.291500 0.270500 -0.100000
v 0.278008 0.279854 -0.100000
v 0.265148 0.286667 -0.100000
v 0.252719 0.291313 -0.100000
v 0.240519 0.294167 -0.100000
v 0.228346 0.295604 -0.100000
v 0.216000 0.296000 -0.100000
v 0.175000 0.296000 -0.100000
v 0.175000 0.000000 -0.100000
v 0.077000 0.000000 -0.100000
v 0.077000 0.682000 -0.100000
v 0.249000 0.682000 -0.100000
v 0.238000 0.384000 -0.100000
v 0.262713 0.385095 -0.100000
v 0.284454 0.388264 -0.100000
v 0.303375 0.393328 -0.100000
v 0.319630 0.400111 -0.100000
v 0.333370 0.408436 -0.100000
v 0.344750 0.418125 -0.100000
v 0.353921 0.429002 -0.100000
v 0.361037 0.440889 -0.100000
v 0.366250 0.453609 -0.100000
v 0.369713 0.466986 -0.100000
v 0.371579 0.480842 -0.100000
v 0.372000 0.495000 -0.100000
v 0.370968 0.510471 -0.100000
v 0.368324 0.524852 -0.100000
v 0.364000 0.538094 -0.100000
v 0.357926 0.550148 -0.100000
v 0.350032 0.560966 -0.100000
v 0.340250 0.570500 -0.100000
v 0.328509 0.578700 -0.100000
v 0.314741 0.585519 -0.100000
v 0.298875 0.590906 -0.100000
v 0.280843 0.594815 -0.100000
v 0.260574 0.597196 -0.100000
v 0.238000 0.598000 -0.100000
v 0.175000 0.598000 -0.100000
v 0.175000 0.384000 -0.100000
v 0.282397 0.680495 -0.100000
v 0.282397 0.680495 0.100000
v 0.313509 0.676046 -0.100000
v 0.313509 0.676046 0.100000
v 0.342219 0.668750 -0.100000
v 0.342219 0.668750 0.100000
v 0.368407 0.658704 -0.100000
v 0.368407 0.658704 0.100000
v 0.391957 0.646005 -0.100000
v 0.391957 0.646005 0.100000
v 0.412750 0.630750 -0.100000
v 0.412750 0.630750 0.100000
v 0.430668 0.613037 -0.100000
v 0.430668 0.613037 0.100000
v 0.445593 0.592963 -0.100000
v 0.445593 0.592963 0.100000
v 0.457406 0.570625 -0.100000
v 0.457406 0.570625 0.100000
v 0.465991 0.546120 -0.100000
v 0.465991 0.546120 0.100000
v 0.471228 0.519546 -0.100000
v 0.471228 0.519546 0.100000
v 0.473000 0.491000 -0.100000
v 0.473000 0.491000 0.100000
v 0.472151 0.471673 -0.100000
v 0.472151 0.471673 0.100000
v 0.469625 0.453213 -0.100000
v 0.469625 0.453213 0.100000
v 0.465453 0.435656 -0.100000
v 0.465453 0.435656 0.100000
v 0.459667 0.419037 -0.100000
v 0.459667 0.419037 0.100000
v 0.452297 0.403390 -0.100000
v 0.452297 0.403390 0.100000
v 0.443375 0.388750 -0.100000
v 0.443375 0.388750 0.100000
v 0.432932 0.375152 -0.100000
v 0.432932 0.375152 0.100000
v 0.421000 0.362630 -0.100000
v 0.421000 0.362630 0.100000
v 0.407609 0.351219 -0.100000
v 0.407609 0.351219 0.100000
v 0.392792 0.340954 -0.100000
v 0.392792 0.340954 0.100000
v 0.376578 0.331869 -0.100000
v 0.376578 0.331869 0.100000
v 0.359000 0.324000 -0.100000
v 0.359000 0.324000 0.100000
v 0.374022 0.313292 -0.100000
v 0.374022 0.313292 0.100000
v 0.388176 0.301667 -0.100000
v 0.388176 0.301667 0.100000
v 0.401594 0.289125 -0.100000
v 0.401594 0.289125 0.100000
v 0.414407 0.275667 -0.100000
v 0.414407 0.275667 0.100000
v 0.426749 0.261292 -0.100000
v 0.426749 0.261292 0.100000
v 0.438750 0.246000 -0.100000
v 0.438750 0.246000 0.100000
v 0.450543 0.229792 -0.100000
v 0.450543 0.229792 0.100000
v 0.462259 0.212667 -0.100000
v 0.462259 0.212667 0.100000
v 0.474031 0.194625 -0.100000
v 0.474031 0.194625 0.100000
v 0.485991 0.175667 -0.100000
v 0.485991 0.175667 0.100000
v 0.498270 0.155792 -0.100000
v 0.498270 0.155792 0.100000
v 0.511000 0.135000 -0.100000
v 0.511000 0.135000 0.100000
v 0.518024 0.123712 -0.100000
v 0.518024 0.123712 0.100000
v 0.524695 0.113194 -0.100000
v 0.524695 0.113194 0.100000
v 0.531156 0.103219 -0.100000
v 0.531156 0.103219 0.100000
v 0.537556 0.093556 -0.100000
v 0.537556 0.093556 0.100000
v 0.544038 0.083976 -0.100000
v 0.544038 0.083976 0.100000
v 0.550750 0.074250 -0.100000
v 0.550750 0.074250 0.100000
v 0.557837 0.064149 -0.100000
v 0.557837 0.064149 0.100000
v 0.565445 0.053444 -0.100000
v 0.565445 0.053444 0.100000
v 0.573719 0.041906 -0.100000
v 0.573719 0.041906 0.100000
v 0.582806 0.029306 -0.100000
v 0.582806 0.029306 0.100000
v 0.592851 0.015413 -0.100000
v 0.592851 0.015413 0.100000
v 0.604000 0.000000 -0.100000
v 0.604000 0.000000 0.100000
v 0.487000 0.000000 -0.100000
v 0.487000 0.000000 0.100000
v 0.397000 0.140000 -0.100000
v 0.397000 0.140000 0.100000
v 0.375487 0.172479 -0.100000
v 0.375487 0.172479 0.100000
v 0.355815 0.200167 -0.100000
v 0.355815 0.200167 0.100000
v 0.337781 0.223437 -0.100000
v 0.337781 0.223437 0.100000
v 0.321185 0.242667 -0.100000
v 0.321185 0.242667 0.100000
v 0.305825 0.258229 -0.100000
v 0.305825 0.258229 0.100000
v 0.291500 0.270500 -0.100000
v 0.291500 0.270500 0.100000
v 0.278008 0.279854 -0.100000
v 0.278008 0.279854 0.100000
v 0.265148 0.286667 -0.100000
v 0.265148 0.286667 0.100000
v 0.252719 0.291313 -0.100000
v 0.252719 0.291313 0.100000
v 0.240519 0.294167 -0.100000
v 0.240519 0.294167 0.100000
v 0.228346 0.295604 -0.100000
v 0.228346 0.295604 0.100000
v 0.216000 0.296000 -0.100000
v 0.216000 0.296000 0.100000
v 0.175000 0.296000 -0.100000
v 0.175000 0.296000 0.100000
v 0.175000 0.000000 -0.100000
v 0.175000 0.000000 0.100000
v 0.077000 0.000000 -0.100000
v 0.077000 0.000000 0.100000
v 0.077000 0.682000 -0.100000
v 0.077000 0.682000 0.100000
v 0.249000 0.682000 -0.100000
v 0.249000 0.682000 0.100000
v 0.238000 0.384000 -0.100000
v 0.238000 0.384000 0.100000
v 0.262713 0.385095 -0.100000
v 0.262713 0.385095 0.100000
v 0.284454 0.388264 -0.100000
v 0.284454 0.388264 0.100000
v 0.303375 0.393328 -0.100000
v 0.303375 0.393328 0.100000
v 0.319630 0.400111 -0.100000
v 0.319630 0.400111 0.100000
v 0.333370 0.408436 -0.100000
v 0.333370 0.408436 0.100000
v 0.344750 0.418125 -0.100000
v 0.344750 0.418125 0.100000
v 0.353921 0.429002 -0.100000
v 0.353921 0.429002 0.100000
v 0.361037 0.440889 -0.100000
v 0.361037 0.440889 0.100000
v 0.366250 0.453609 -0.100000
v 0.366250 0.453609 0.100000
v 0.369713 0.466986 -0.100000
v 0.369713 0.466986 0.100000
v 0.371579 0.480842 -0.100000
v 0.371579 0.480842 0.100000
v 0.372000 0.495000 -0.100000
v 0.372000 0.495000 0.100000
v 0.370968 0.510471 -0.100000
v 0.370968 0.510471 0.100000
v 0.368324 0.524852 -0.100000
v 0.368324 0.524852 0.100000
v 0.364000 0.538094 -0.100000
v 0.364000 0.538094 0.100000
v 0.357926 0.550148 -0.100000
v 0.357926 0.550148 0.100000
v 0.350032 0.560966 -0.100000
v 0.350032 0.560966 0.100000
v 0.340250 0.570500 -0.100000
v 0.340250 0.570500 0.100000
v 0.328509 0.578700 -0.100000
v 0.328509 0.578700 0.100000
v 0.314741 0.585519 -0.100000
v 0.314741 0.585519 0.100000
v 0.298875 0.590906 -0.100000
v 0.298875 0.590906 0.100000
v 0.280843 0.594815 -0.100000
v 0.280843 0.594815 0.100000
v 0.260574 0.597196 -0.100000
v 0.260574 0.597196 0.100000
v 0.238000 0.598000 -0.100000
v 0.238000 0.598000 0.100000
v 0.175000 0.598000 -0.100000
v 0.175000 0.598000 0.100000
v 0.175000 0.384000 -0.100000
v 0.175000 0.384000 0.100000
vt 0.688172 0.000000
vt 0.989247 0.000000
vt 0.698925 0.000000
vt 0.709677 0.000000
vt 0.000000 0.000000
vt 0.010753 0.000000
vt 0.021505 0.000000
vt 0.032258 0.000000
vt 0.043011 0.000000
vt 0.053763 0.000000
vt 0.064516 0.000000
vt 0.978495 0.000000
vt 0.075269 0.000000
vt 1.000000 0.000000
vt 0.967742 0.000000
vt 0.956989 0.000000
vt 0.946237 0.000000
vt 0.086022 0.000000
vt 0.935484 0.000000
vt 0.924731 0.000000
vt 0.913979 0.000000
vt 0.096774 0.000000
vt 0.903226 0.000000
vt 0.892473 0.000000
vt 0.881720 0.000000
vt 0.107527 0.000000
vt 0.870968 0.000000
vt 0.860215 0.000000
vt 0.118280 0.000000
vt 0.849462 0.000000
vt 0.838710 0.000000
vt 0.129032 0.000000
vt 0.827957 0.000000
vt 0.139785 0.000000
vt 0.817204 0.000000
vt 0.806452 0.000000
vt 0.150538 0.000000
vt 0.795699 0.000000
vt 0.161290 0.000000
vt 0.784946 0.000000
vt 0.172043 0.000000
vt 0.774194 0.000000
vt 0.763441 0.000000
vt 0.182796 0.000000
vt 0.752688 0.000000
vt 0.741935 0.000000
vt 0.193548 0.000000
vt 0.731183 0.000000
vt 0.720430 0.000000
vt 0.666667 0.000000
vt 0.204301 0.000000
vt 0.215054 0.000000
vt 0.225806 0.000000
vt 0.236559 0.000000
vt 0.247312 0.000000
vt 0.258065 0.000000
vt 0.268817 0.000000
vt 0.655914 0.000000
vt 0.645161 0.000000
vt 0.279570 0.000000
vt 0.677419 0.000000
vt 0.634409 0.000000
vt 0.623656 0.000000
vt 0.612903 0.000000
vt 0.290323 0.000000
vt 0.602151 0.000000
vt 0.591398 0.000000
vt 0.301075 0.000000
vt 0.580645 0.000000
vt 0.311828 0.000000
vt 0.569892 0.000000
vt 0.322581 0.000000
vt 0.559140 0.000000
vt 0.333333 0.000000
vt 0.548387 0.000000
vt 0.344086 0.000000
vt 0.537634 0.000000
vt 0.354839 0.000000
vt 0.365591 0.000000
vt 0.526882 0.000000
vt 0.376344 0.000000
vt 0.516129 0.000000
vt 0.387097 0.000000
vt 0.397849 0.000000
vt 0.408602 0.000000
vt 0.419355 0.000000
vt 0.430108 0.000000
vt 0.440860 0.000000
vt 0.451613 0.000000
vt 0.462366 0.000000
vt 0.473118 0.000000
vt 0.483871 0.000000
vt 0.494624 0.000000
vt 0.505376 0.000000
vt 0.989247 0.000000
vt 0.688172 0.000000
vt 0.698925 0.000000
vt 0.709677 0.000000
vt 0.000000 0.000000
vt 0.010753 0.000000
vt 0.021505 0.000000
vt 0.032258 0.000000
vt 0.043011 0.000000
vt 0.053763 0.000000
vt 0.064516 0.000000
vt 0.978495 0.000000
vt 0.075269 0.000000
vt 1.000000 0.000000
vt 0.967742 0.000000
vt 0.956989 0.000000
vt 0.946237 0.000000
vt 0.086022 0.000000
vt 0.935484 0.000000
vt 0.924731 0.000000
vt 0.913979 0.000000
vt 0.096774 0.000000
vt 0.903226 0.000000
vt 0.892473 0.000000
vt 0.881720 0.000000
vt 0.107527 0.000000
vt 0.870968 0.000000
vt 0.860215 0.000000
vt 0.118280 0.000000
vt 0.849462 0.000000
vt 0.838710 0.000000
vt 0.129032 0.000000
vt 0.827957 0.000000
vt 0.139785 0.000000
vt 0.817204 0.000000
vt 0.806452 0.000000
vt 0.150538 0.000000
vt 0.795699 0.000000
vt 0.161290 0.000000
vt 0.784946 0.000000
vt 0.172043 0.000000
vt 0.774194 0.000000
vt 0.763441 0.000000
vt 0.182796 0.000000
vt 0.752688 0.000000
vt 0.741935 0.000000
vt 0.193548 0.000000
vt 0.731183 0.000000
vt 0.720430 0.000000
vt 0.666667 0.000000
vt 0.204301 0.000000
vt 0.215054 0.000000
vt 0.225806 0.000000
vt 0.236559 0.000000
vt 0.247312 0.000000
vt 0.258065 0.000000
vt 0.268817 0.000000
vt 0.655914 0.000000
vt 0.645161 0.000000
vt 0.279570 0.000000
vt 0.677419 0.000000
vt 0.634409 0.000000
vt 0.623656 0.000000
vt 0.612903 0.000000
vt 0.290323 0.000000
vt 0.602151 0.000000
vt 0.591398 0.000000
vt 0.301075 0.000000
vt 0.580645 0.000000
vt 0.311828 0.000000
vt 0.569892 0.000000
vt 0.322581 0.000000
vt 0.559140 0.000000
vt 0.333333 0.000000
vt 0.548387 0.000000
vt 0.344086 0.000000
vt 0.537634 0.000000
vt 0.354839 0.000000
vt 0.365591 0.000000
vt 0.526882 0.000000
vt 0.376344 0.000000
vt 0.516129 0.000000
vt 0.387097 0.000000
vt 0.397849 0.000000
vt 0.408602 0.000000
vt 0.419355 0.000000
vt 0.430108 0.000000
vt 0.440860 0.000000
vt 0.451613 0.000000
vt 0.462366 0.000000
vt 0.473118 0.000000
vt 0.483871 0.000000
vt 0.494624 0.000000
vt 0.505376 0.000000
vt 0.000000 1.000000
vt 0.014925 1.000000
vt 0.014925 0.000000
vt 0.000000 0.000000
vt 0.029851 1.000000
vt 0.029851 0.000000
vt 0.044776 1.000000
vt 0.044776 0.000000
vt 0.059701 1.000000
vt 0.059701 0.000000
vt 0.074627 1.000000
vt 0.074627 0.000000
vt 0.089552 1.000000
vt 0.089552 0.000000
vt 0.104478 1.000000
vt 0.104478 0.000000
vt 0.119403 1.000000
vt 0.119403 0.000000
vt 0.134328 1.000000
vt 0.134328 0.000000
vt 0.149254 1.000000
vt 0.149254 0.000000
vt 0.164179 1.000000
vt 0.164179 0.000000
vt 0.179104 1.000000
vt 0.179104 0.000000
vt 0.194030 1.000000
vt 0.194030 0.000000
vt 0.208955 1.000000
vt 0.208955 0.000000
vt 0.223881 1.000000
vt 0.223881 0.000000
vt 0.238806 1.000000
vt 0.238806 0.000000
vt 0.253731 1.000000
vt 0.253731 0.000000
vt 0.268657 1.000000
vt 0.268657 0.000000
vt 0.283582 1.000000
vt 0.283582 0.000000
vt 0.298507 1.000000
vt 0.298507 0.000000
vt 0.313433 1.000000
vt 0.313433 0.000000
vt 0.328358 1.000000
vt 0.328358 0.000000
vt 0.343284 1.000000
vt 0.343284 0.000000
vt 0.358209 1.000000
vt 0.358209 0.000000
vt 0.373134 1.000000
vt 0.373134 0.000000
vt 0.388060 1.000000
vt 0.388060 0.000000
vt 0.402985 1.000000
vt 0.402985 0.000000
vt 0.417910 1.000000
vt 0.417910 0.000000
vt 0.432836 1.000000
vt 0.432836 0.000000
vt 0.447761 1.000000
vt 0.447761 0.000000
vt 0.462687 1.000000
vt 0.462687 0.000000
vt 0.477612 1.000000
vt 0.477612 0.000000
vt 0.492537 1.000000
vt 0.492537 0.000000
vt 0.507463 1.000000
vt 0.507463 0.000000
vt 0.522388 1.000000
vt 0.522388 0.000000
vt 0.537313 1.000000
vt 0.537313 0.000000
vt 0.552239 1.000000
vt 0.552239 0.000000
vt 0.567164 1.000000
vt 0.567164 0.000000
vt 0.582090 1.000000
vt 0.582090 0.000000
vt 0.597015 1.000000
vt 0.597015 0.000000
vt 0.611940 1.000000
vt 0.611940 0.000000
vt 0.626866 1.000000
vt 0.626866 0.000000
vt 0.641791 1.000000
vt 0.641791 0.000000
vt 0.656716 1.000000
vt 0.656716 0.000000
vt 0.671642 1.000000
vt 0.671642 0.000000
vt 0.686567 1.000000
vt 0.686567 0.000000
vt 0.701493 1.000000
vt 0.701493 0.000000
vt 0.716418 1.000000
vt 0.716418 0.000000
vt 0.731343 1.000000
vt 0.731343 0.000000
vt 0.746269 1.000000
vt 0.746269 0.000000
vt 0.761194 1.000000
vt 0.761194 0.000000
vt 0.776119 1.000000
vt 0.776119 0.000000
vt 0.791045 1.000000
vt 0.791045 0.000000
vt 0.805970 1.000000
vt 0.805970 0.000000
vt 0.820895 1.000000
vt 0.820895 0.000000
vt 0.835821 1.000000
vt 0.835821 0.000000
vt 0.850746 1.000000
vt 0.850746 0.000000
vt 0.865672 1.000000
vt 0.865672 0.000000
vt 0.880597 1.000000
vt 0.880597 0.000000
vt 0.895522 1.000000
vt 0.895522 0.000000
vt 0.910448 1.000000
vt 0.910448 0.000000
vt 0.925373 1.000000
vt 0.925373 0.000000
vt 0.940298 1.000000
vt 0.940298 0.000000
vt 0.955224 1.000000
vt 0.955224 0.000000
vt 0.970149 1.000000
vt 0.970149 0.000000
vt 0.985075 1.000000
vt 0.985075 0.000000
vt 1.000000 1.000000
vt 1.000000 0.000000
vt 0.000000 1.000000
vt 0.037037 1.000000
vt 0.037037 0.000000
vt 0.000000 0.000000
vt 0.074074 1.000000
vt 0.074074 0.000000
vt 0.111111 1.000000
vt 0.111111 0.000000
vt 0.148148 1.000000
vt 0.148148 0.000000
vt 0.185185 1.000000
vt 0.185185 0.000000
vt 0.222222 1.000000
vt 0.222222 0.000000
vt 0.259259 1.000000
vt 0.259259 0.000000
vt 0.296296 1.000000
vt 0.296296 0.000000
vt 0.333333 1.000000
vt 0.333333 0.000000
vt 0.370370 1.000000
vt 0.370370 0.000000
vt 0.407407 1.000000
vt 0.407407 0.000000
vt 0.444444 1.000000
vt 0.444444 0.000000
vt 0.481481 1.000000
vt 0.481481 0.000000
vt 0.518519 1.000000
vt 0.518519 0.000000
vt 0.555556 1.000000
vt 0.555556 0.000000
vt 0.592593 1.000000
vt 0.592593 0.000000
vt 0.629630 1.000000
vt 0.629630 0.000000
vt 0.666667 1.000000
vt 0.666667 0.000000
vt 0.703704 1.000000
vt 0.703704 0.000000
vt 0.740741 1.000000
vt 0.740741 0.000000
vt 0.777778 1.000000
vt 0.777778 0.000000
vt 0.814815 1.000000
vt 0.814815 0.000000
vt 0.851852 1.000000
vt 0.851852 0.000000
vt 0.888889 1.000000
vt 0.888889 0.000000
vt 0.925926 1.000000
vt 0.925926 0.000000
vt 0.962963 1.000000
vt 0.962963 0.000000
vt 1.000000 1.000000
vt 1.000000 0.000000
vn 0.0000 0.0000 1.0000
vn 0.0000 0.0000 -1.0000
vn 0.0934 0.9956 0.0000
vn 0.1942 0.9810 0.0000
vn 0.3027 0.9531 0.0000
vn 0.4172 0.9088 0.0000
vn 0.5343 0.8452 0.0000
vn 0.6490 0.7608 0.0000
vn 0.7549 0.6558 0.0000
vn 0.8457 0.5336 0.0000
vn 0.9164 0.4002 0.0000
vn 0.9649 0.2626 0.0000
vn 0.9918 0.1279 0.0000
vn 0.9999 0.0090 0.0000
vn 0.9959 -0.0898 0.0000
vn 0.9830 -0.1836 0.0000
vn 0.9599 -0.2803 0.0000
vn 0.9258 -0.3780 0.0000
vn 0.8806 -0.4739 0.0000
vn 0.8247 -0.5655 0.0000
vn 0.7596 -0.6504 0.0000
vn 0.6872 -0.7265 0.0000
vn 0.6098 -0.7925 0.0000
vn 0.5297 -0.8481 0.0000
vn 0.4491 -0.8934 0.0000
vn 0.9951 -0.0990 0.0000
vn 0.6079 0.7940 0.0000
vn 0.6591 0.7520 0.0000
vn 0.7038 0.7103 0.0000
vn 0.7417 0.6707 0.0000
vn 0.7729 0.6345 0.0000
vn 0.7978 0.6030 0.0000
vn 0.8170 0.5766 0.0000
vn 0.8314 0.5556 0.0000
vn 0.8416 0.5400 0.0000
vn 0.8483 0.5296 0.0000
vn 0.8518 0.5239 0.0000
vn 0.8509 0.5253 0.0000
vn 0.8468 0.5319 0.0000
vn 0.8419 0.5396 0.0000
vn 0.8365 0.5479 0.0000
vn 0.8310 0.5563 0.0000
vn 0.8256 0.5642 0.0000
vn 0.8208 0.5712 0.0000
vn 0.8169 0.5768 0.0000
vn 0.8139 0.5810 0.0000
vn 0.8119 0.5838 0.0000
vn 0.8107 0.5854 0.0000
vn 0.8103 0.5860 0.0000
vn 0.8905 -0.4549 0.0000
vn -0.4792 -0.8777 0.0000
vn -0.8375 -0.5465 0.0000
vn -0.8245 -0.5658 0.0000
vn -0.8030 -0.5960 0.0000
vn -0.7740 -0.6332 0.0000
vn -0.7348 -0.6783 0.0000
vn -0.6817 -0.7316 0.0000
vn -0.6110 -0.7917 0.0000
vn -0.5199 -0.8542 0.0000
vn -0.4100 -0.9121 0.0000
vn -0.2895 -0.9572 0.0000
vn -0.1728 -0.9850 0.0000
vn -0.0747 -0.9972 0.0000
vn -0.0160 -0.9998 0.0000
vn 0.7071 -0.7071 0.0000
vn -0.7071 -0.7071 0.0000
vn -0.7071 0.7071 0.0000
vn 0.0225 0.9997 0.0000
vn -0.0221 0.9997 0.0000
vn -0.0944 0.9955 0.0000
vn -0.2017 0.9794 0.0000
vn -0.3226 0.9465 0.0000
vn -0.4529 0.8915 0.0000
vn -0.5851 0.8109 0.0000
vn -0.7088 0.7054 0.0000
vn -0.8139 0.5810 0.0000
vn -0.8942 0.4476 0.0000
vn -0.9489 0.3156 0.0000
vn -0.9813 0.1924 0.0000
vn -0.9966 0.0817 0.0000
vn -0.9998 -0.0184 0.0000
vn -0.9923 -0.1239 0.0000
vn -0.9692 -0.2461 0.0000
vn -0.9244 -0.3813 0.0000
vn -0.8533 -0.5214 0.0000
vn -0.7555 -0.6551 0.0000
vn -0.6374 -0.7705 0.0000
vn -0.5096 -0.8604 0.0000
vn -0.3835 -0.9235 0.0000
vn -0.2671 -0.9637 0.0000
vn -0.1644 -0.9864 0.0000
vn -0.0762 -0.9971 0.0000
vn -0.0178 -0.9998 0.0000
vn 0.7071 0.7071 0.0000
usemtl None
s off
f 65/1/1 93/2/1 66/3/1
f 93/2/1 67/4/1 66/3/1
f 93/2/1 1/5/1 67/4/1
f 93/2/1 2/6/1 1/5/1
f 93/2/1 3/7/1 2/6/1
f 93/2/1 4/8/1 3/7/1
f 93/2/1 5/9/1 4/8/1
f 93/2/1 6/10/1 5/9/1
f 93/2/1 7/11/1 6/10/1
f 93/2/1 92/12/1 7/11/1
f 92/12/1 8/13/1 7/11/1
f 65/1/1 94/14/1 93/2/1
f 91/15/1 8/13/1 92/12/1
f 90/16/1 8/13/1 91/15/1
f 89/17/1 8/13/1 90/16/1
f 89/17/1 9/18/1 8/13/1
f 88/19/1 9/18/1 89/17/1
f 87/20/1 9/18/1 88/19/1
f 86/21/1 9/18/1 87/20/1
f 86/21/1 10/22/1 9/18/1
f 85/23/1 10/22/1 86/21/1
f 84/24/1 10/22/1 85/23/1
f 83/25/1 10/22/1 84/24/1
f 83/25/1 11/26/1 10/22/1
f 82/27/1 11/26/1 83/25/1
f 81/28/1 11/26/1 82/27/1
f 81/28/1 12/29/1 11/26/1
f 80/30/1 12/29/1 81/28/1
f 79/31/1 12/29/1 80/30/1
f 79/31/1 13/32/1 12/29/1
f 78/33/1 13/32/1 79/31/1
f 78/33/1 14/34/1 13/32/1
f 77/35/1 14/34/1 78/33/1
f 76/36/1 14/34/1 77/35/1
f 76/36/1 15/37/1 14/34/1
f 75/38/1 15/37/1 76/36/1
f 75/38/1 16/39/1 15/37/1
f 74/40/1 16/39/1 75/38/1
f 74/40/1 17/41/1 16/39/1
f 73/42/1 17/41/1 74/40/1
f 72/43/1 17/41/1 73/42/1
f 72/43/1 18/44/1 17/41/1
f 71/45/1 18/44/1 72/43/1
f 70/46/1 18/44/1 71/45/1
f 70/46/1 19/47/1 18/44/1
f 69/48/1 19/47/1 70/46/1
f 68/49/1 19/47/1 69/48/1
f 65/1/1 63/50/1 94/14/1
f 63/50/1 68/49/1 94/14/1
f 63/50/1 19/47/1 68/49/1
f 63/50/1 20/51/1 19/47/1
f 63/50/1 21/52/1 20/51/1
f 63/50/1 22/53/1 21/52/1
f 63/50/1 23/54/1 22/53/1
f 63/50/1 24/55/1 23/54/1
f 63/50/1 25/56/1 24/55/1
f 63/50/1 26/57/1 25/56/1
f 63/50/1 62/58/1 26/57/1
f 62/58/1 61/59/1 26/57/1
f 61/59/1 27/60/1 26/57/1
f 65/1/1 64/61/1 63/50/1
f 60/62/1 27/60/1 61/59/1
f 59/63/1 27/60/1 60/62/1
f 58/64/1 27/60/1 59/63/1
f 58/64/1 28/65/1 27/60/1
f 57/66/1 28/65/1 58/64/1
f 56/67/1 28/65/1 57/66/1
f 56/67/1 29/68/1 28/65/1
f 55/69/1 29/68/1 56/67/1
f 55/69/1 30/70/1 29/68/1
f 54/71/1 30/70/1 55/69/1
f 54/71/1 31/72/1 30/70/1
f 53/73/1 31/72/1 54/71/1
f 53/73/1 32/74/1 31/72/1
f 52/75/1 32/74/1 53/73/1
f 52/75/1 33/76/1 32/74/1
f 51/77/1 33/76/1 52/75/1
f 51/77/1 34/78/1 33/76/1
f 51/77/1 35/79/1 34/78/1
f 50/80/1 35/79/1 51/77/1
f 50/80/1 36/81/1 35/79/1
f 49/82/1 36/81/1 50/80/1
f 49/82/1 37/83/1 36/81/1
f 49/82/1 38/84/1 37/83/1
f 49/82/1 39/85/1 38/84/1
f 49/82/1 40/86/1 39/85/1
f 49/82/1 41/87/1 40/86/1
f 49/82/1 42/88/1 41/87/1
f 49/82/1 43/89/1 42/88/1
f 49/82/1 44/90/1 43/89/1
f 49/82/1 45/91/1 44/90/1
f 49/82/1 46/92/1 45/91/1
f 49/82/1 47/93/1 46/92/1
f 49/82/1 48/94/1 47/93/1
f 187/95/2 159/96/2 160/97/2
f 161/98/2 187/95/2 160/97/2
f 95/99/2 187/95/2 161/98/2
f 96/100/2 187/95/2 95/99/2
f 97/101/2 187/95/2 96/100/2
f 98/102/2 187/95/2 97/101/2
f 99/103/2 187/95/2 98/102/2
f 100/104/2 187/95/2 99/103/2
f 101/105/2 187/95/2 100/104/2
f 186/106/2 187/95/2 101/105/2
f 102/107/2 186/106/2 101/105/2
f 188/108/2 159/96/2 187/95/2
f 102/107/2 185/109/2 186/106/2
f 102/107/2 184/110/2 185/109/2
f 102/107/2 183/111/2 184/110/2
f 103/112/2 183/111/2 102/107/2
f 103/112/2 182/113/2 183/111/2
f 103/112/2 181/114/2 182/113/2
f 103/112/2 180/115/2 181/114/2
f 104/116/2 180/115/2 103/112/2
f 104/116/2 179/117/2 180/115/2
f 104/116/2 178/118/2 179/117/2
f 104/116/2 177/119/2 178/118/2
f 105/120/2 177/119/2 104/116/2
f 105/120/2 176/121/2 177/119/2
f 105/120/2 175/122/2 176/121/2
f 106/123/2 175/122/2 105/120/2
f 106/123/2 174/124/2 175/122/2
f 106/123/2 173/125/2 174/124/2
f 107/126/2 173/125/2 106/123/2
f 107/126/2 172/127/2 173/125/2
f 108/128/2 172/127/2 107/126/2
f 108/128/2 171/129/2 172/127/2
f 108/128/2 170/130/2 171/129/2
f 109/131/2 170/130/2 108/128/2
f 109/131/2 169/132/2 170/130/2
f 110/133/2 169/132/2 109/131/2
f 110/133/2 168/134/2 169/132/2
f 111/135/2 168/134/2 110/133/2
f 111/135/2 167/136/2 168/134/2
f 111/135/2 166/137/2 167/136/2
f 112/138/2 166/137/2 111/135/2
f 112/138/2 165/139/2 166/137/2
f 112/138/2 164/140/2 165/139/2
f 113/141/2 164/140/2 112/138/2
f 113/141/2 163/142/2 164/140/2
f 113/141/2 162/143/2 163/142/2
f 157/144/2 159/96/2 188/108/2
f 162/143/2 157/144/2 188/108/2
f 113/141/2 157/144/2 162/143/2
f 114/145/2 157/144/2 113/141/2
f 115/146/2 157/144/2 114/145/2
f 116/147/2 157/144/2 115/146/2
f 117/148/2 157/144/2 116/147/2
f 118/149/2 157/144/2 117/148/2
f 119/150/2 157/144/2 118/149/2
f 120/151/2 157/144/2 119/150/2
f 156/152/2 157/144/2 120/151/2
f 155/153/2 156/152/2 120/151/2
f 121/154/2 155/153/2 120/151/2
f 158/155/2 159/96/2 157/144/2
f 121/154/2 154/156/2 155/153/2
f 121/154/2 153/157/2 154/156/2
f 121/154/2 152/158/2 153/157/2
f 122/159/2 152/158/2 121/154/2
f 122/159/2 151/160/2 152/158/2
f 122/159/2 150/161/2 151/160/2
f 123/162/2 150/161/2 122/159/2
f 123/162/2 149/163/2 150/161/2
f 124/164/2 149/163/2 123/162/2
f 124/164/2 148/165/2 149/163/2
f 125/166/2 148/165/2 124/164/2
f 125/166/2 147/167/2 148/165/2
f 126/168/2 147/167/2 125/166/2
f 126/168/2 146/169/2 147/167/2
f 127/170/2 146/169/2 126/168/2
f 127/170/2 145/171/2 146/169/2
f 128/172/2 145/171/2 127/170/2
f 129/173/2 145/171/2 128/172/2
f 129/173/2 144/174/2 145/171/2
f 130/175/2 144/174/2 129/173/2
f 130/175/2 143/176/2 144/174/2
f 131/177/2 143/176/2 130/175/2
f 132/178/2 143/176/2 131/177/2
f 133/179/2 143/176/2 132/178/2
f 134/180/2 143/176/2 133/179/2
f 135/181/2 143/176/2 134/180/2
f 136/182/2 143/176/2 135/181/2
f 137/183/2 143/176/2 136/182/2
f 138/184/2 143/176/2 137/183/2
f 139/185/2 143/176/2 138/184/2
f 140/186/2 143/176/2 139/185/2
f 141/187/2 143/176/2 140/186/2
f 142/188/2 143/176/2 141/187/2
s 1
f 190/189/3 192/190/4 191/191/4 189/192/3
f 192/190/4 194/193/5 193/194/5 191/191/4
f 194/193/5 196/195/6 195/196/6 193/194/5
f 196/195/6 198/197/7 197/198/7 195/196/6
f 198/197/7 200/199/8 199/200/8 197/198/7
f 200/199/8 202/201/9 201/202/9 199/200/8
f 202/201/9 204/203/10 203/204/10 201/202/9
f 204/203/10 206/205/11 205/206/11 203/204/10
f 206/205/11 208/207/12 207/208/12 205/206/11
f 208/207/12 210/209/13 209/210/13 207/208/12
f 210/209/13 212/211/14 211/212/14 209/210/13
f 212/211/14 214/213/15 213/214/15 211/212/14
f 214/213/15 216/215/16 215/216/16 213/214/15
f 216/215/16 218/217/17 217/218/17 215/216/16
f 218/217/17 220/219/18 219/220/18 217/218/17
f 220/219/18 222/221/19 221/222/19 219/220/18
f 222/221/19 224/223/20 223/224/20 221/222/19
f 224/223/20 226/225/21 225/226/21 223/224/20
f 226/225/21 228/227/22 227/228/22 225/226/21
f 228/227/22 230/229/23 229/230/23 227/228/22
f 230/229/23 232/231/24 231/232/24 229/230/23
f 232/231/24 234/233/25 233/234/25 231/232/24
f 234/233/25 236/235/26 235/236/26 233/234/25
f 236/235/26 238/237/27 237/238/27 235/236/26
f 238/237/27 240/239/28 239/240/28 237/238/27
f 240/239/28 242/241/29 241/242/29 239/240/28
f 242/241/29 244/243/30 243/244/30 241/242/29
f 244/243/30 246/245/31 245/246/31 243/244/30
f 246/245/31 248/247/32 247/248/32 245/246/31
f 248/247/32 250/249/33 249/250/33 247/248/32
f 250/249/33 252/251/34 251/252/34 249/250/33
f 252/251/34 254/253/35 253/254/35 251/252/34
f 254/253/35 256/255/36 255/256/36 253/254/35
f 256/255/36 258/257/37 257/258/37 255/256/36
f 258/257/37 260/259/38 259/260/38 257/258/37
f 260/259/38 262/261/39 261/262/39 259/260/38
f 262/261/39 264/263/40 263/264/40 261/262/39
f 264/263/40 266/265/41 265/266/41 263/264/40
f 266/265/41 268/267/42 267/268/42 265/266/41
f 268/267/42 270/269/43 269/270/43 267/268/42
f 270/269/43 272/271/44 271/272/44 269/270/43
f 272/271/44 274/273/45 273/274/45 271/272/44
f 274/273/45 276/275/46 275/276/46 273/274/45
f 276/275/46 278/277/47 277/278/47 275/276/46
f 278/277/47 280/279/48 279/280/48 277/278/47
f 280/279/48 282/281/49 281/282/49 279/280/48
f 282/281/49 284/283/50 283/284/50 281/282/49
f 284/283/50 286/285/51 285/286/51 283/284/50
f 286/285/51 288/287/52 287/288/52 285/286/51
f 288/287/52 290/289/53 289/290/53 287/288/52
f 290/289/53 292/291/54 291/292/54 289/290/53
f 292/291/54 294/293/55 293/294/55 291/292/54
f 294/293/55 296/295/56 295/296/56 293/294/55
f 296/295/56 298/297/57 297/298/57 295/296/56
f 298/297/57 300/299/58 299/300/58 297/298/57
f 300/299/58 302/301/59 301/302/59 299/300/58
f 302/301/59 304/303/60 303/304/60 301/302/59
f 304/303/60 306/305/61 305/306/61 303/304/60
f 306/305/61 308/307/62 307/308/62 305/306/61
f 308/307/62 310/309/63 309/310/63 307/308/62
f 310/309/63 312/311/64 311/312/64 309/310/63
f 312/311/64 314/313/65 313/314/65 311/312/64
f 314/313/65 316/315/65 315/316/65 313/314/65
f 316/315/65 318/317/66 317/318/66 315/316/65
f 318/317/66 320/319/67 319/320/67 317/318/66
f 320/319/67 322/321/68 321/322/68 319/320/67
f 322/321/68 190/323/3 189/324/3 321/322/68
f 324/325/69 326/326/70 325/327/70 323/328/69
f 326/326/70 328/329/71 327/330/71 325/327/70
f 328/329/71 330/331/72 329/332/72 327/330/71
f 330/331/72 332/333/73 331/334/73 329/332/72
f 332/333/73 334/335/74 333/336/74 331/334/73
f 334/335/74 336/337/75 335/338/75 333/336/74
f 336/337/75 338/339/76 337/340/76 335/338/75
f 338/339/76 340/341/77 339/342/77 337/340/76
f 340/341/77 342/343/78 341/344/78 339/342/77
f 342/343/78 344/345/79 343/346/79 341/344/78
f 344/345/79 346/347/80 345/348/80 343/346/79
f 346/347/80 348/349/81 347/350/81 345/348/80
f 348/349/81 350/351/82 349/352/82 347/350/81
f 350/351/82 352/353/83 351/354/83 349/352/82
f 352/353/83 354/355/84 353/356/84 351/354/83
f 354/355/84 356/357/85 355/358/85 353/356/84
f 356/357/85 358/359/86 357/360/86 355/358/85
f 358/359/86 360/361/87 359/362/87 357/360/86
f 360/361/87 362/363/88 361/364/88 359/362/87
f 362/363/88 364/365/89 363/366/89 361/364/88
f 364/365/89 366/367/90 365/368/90 363/366/89
f 366/367/90 368/369/91 367/370/91 365/368/90
f 368/369/91 370/371/92 369/372/92 367/370/91
f 370/371/92 372/373/93 371/374/93 369/372/92
f 372/373/93 374/375/65 373/376/65 371/374/93
f 374/375/65 376/377/94 375/378/94 373/376/65
f 376/377/94 324/379/69 323/380/69 375/378/94
