# Blender v2.82 (sub 7) OBJ File: ''
# www.blender.org
mtllib 88.mtl
o Text
v 0.706000 0.000000 0.100000
v 0.588000 0.000000 0.100000
v 0.356000 0.282000 0.100000
v 0.121000 0.000000 0.100000
v 0.002000 0.000000 0.100000
v 0.296000 0.353000 0.100000
v 0.023000 0.682000 0.100000
v 0.142000 0.682000 0.100000
v 0.356000 0.422000 0.100000
v 0.569000 0.682000 0.100000
v 0.687000 0.682000 0.100000
v 0.415000 0.353000 0.100000
v 0.706000 0.000000 -0.100000
v 0.588000 0.000000 -0.100000
v 0.356000 0.282000 -0.100000
v 0.121000 0.000000 -0.100000
v 0.002000 0.000000 -0.100000
v 0.296000 0.353000 -0.100000
v 0.023000 0.682000 -0.100000
v 0.142000 0.682000 -0.100000
v 0.356000 0.422000 -0.100000
v 0.569000 0.682000 -0.100000
v 0.687000 0.682000 -0.100000
v 0.415000 0.353000 -0.100000
v 0.706000 0.000000 -0.100000
v 0.706000 0.000000 0.100000
v 0.588000 0.000000 -0.100000
v 0.588000 0.000000 0.100000
v 0.356000 0.282000 -0.100000
v 0.356000 0.282000 0.100000
v 0.121000 0.000000 -0.100000
v 0.121000 0.000000 0.100000
v 0.002000 0.000000 -0.100000
v 0.002000 0.000000 0.100000
v 0.296000 0.353000 -0.100000
v 0.296000 0.353000 0.100000
v 0.023000 0.682000 -0.100000
v 0.023000 0.682000 0.100000
v 0.142000 0.682000 -0.100000
v 0.142000 0.682000 0.100000
v 0.356000 0.422000 -0.100000
v 0.356000 0.422000 0.100000
v 0.569000 0.682000 -0.100000
v 0.569000 0.682000 0.100000
v 0.687000 0.682000 -0.100000
v 0.687000 0.682000 0.100000
v 0.415000 0.353000 -0.100000
v 0.415000 0.353000 0.100000
vt 0.454545 0.000000
vt 0.636364 0.000000
vt 0.545455 0.000000
vt 0.727273 0.000000
vt 0.909091 0.000000
vt 0.818182 0.000000
vt 1.000000 0.000000
vt 0.363636 0.000000
vt 0.181818 0.000000
vt 0.000000 0.000000
vt 0.272727 0.000000
vt 0.090909 0.000000
vt 0.636364 0.000000
vt 0.454545 0.000000
vt 0.545455 0.000000
vt 0.727273 0.000000
vt 0.909091 0.000000
vt 0.818182 0.000000
vt 1.000000 0.000000
vt 0.363636 0.000000
vt 0.181818 0.000000
vt 0.000000 0.000000
vt 0.272727 0.000000
vt 0.090909 0.000000
vt 0.000000 1.000000
vt 0.083333 1.000000
vt 0.083333 0.000000
vt 0.000000 0.000000
vt 0.166667 1.000000
vt 0.166667 0.000000
vt 0.250000 1.000000
vt 0.250000 0.000000
vt 0.333333 1.000000
vt 0.333333 0.000000
vt 0.416667 1.000000
vt 0.416667 0.000000
vt 0.500000 1.000000
vt 0.500000 0.000000
vt 0.583333 1.000000
vt 0.583333 0.000000
vt 0.666667 1.000000
vt 0.666667 0.000000
vt 0.750000 1.000000
vt 0.750000 0.000000
vt 0.833333 1.000000
vt 0.833333 0.000000
vt 0.916667 1.000000
vt 0.916667 0.000000
vt 1.000000 1.000000
vt 1.000000 0.000000
vn 0.0000 0.0000 1.0000
vn 0.0000 0.0000 -1.0000
vn 0.9044 -0.4266 0.0000
vn -0.4270 -0.9042 0.0000
vn -0.0031 -1.0000 0.0000
vn 0.4241 -0.9056 0.0000
vn -0.9055 -0.4243 0.0000
vn -1.0000 0.0009 0.0000
vn -0.9051 0.4251 0.0000
vn 0.4269 0.9043 0.0000
vn -0.0011 1.0000 0.0000
vn -0.4279 0.9038 0.0000
vn 0.9048 0.4259 0.0000
vn 1.0000 -0.0007 0.0000
usemtl None
s off
f 6/1/1 8/2/1 7/3/1
f 6/1/1 9/4/1 8/2/1
f 9/4/1 11/5/1 10/6/1
f 9/4/1 12/7/1 11/5/1
f 6/1/1 12/7/1 9/4/1
f 5/8/1 12/7/1 6/1/1
f 5/8/1 3/9/1 12/7/1
f 3/9/1 1/10/1 12/7/1
f 5/8/1 4/11/1 3/9/1
f 2/12/1 1/10/1 3/9/1
f 20/13/2 18/14/2 19/15/2
f 21/16/2 18/14/2 20/13/2
f 23/17/2 21/16/2 22/18/2
f 24/19/2 21/16/2 23/17/2
f 24/19/2 18/14/2 21/16/2
f 24/19/2 17/20/2 18/14/2
f 15/21/2 17/20/2 24/19/2
f 13/22/2 15/21/2 24/19/2
f 16/23/2 17/20/2 15/21/2
f 13/22/2 14/24/2 15/21/2
s 1
f 26/25/3 28/26/4 27/27/4 25/28/3
f 28/26/4 30/29/5 29/30/5 27/27/4
f 30/29/5 32/31/6 31/32/6 29/30/5
f 32/31/6 34/33/7 33/34/7 31/32/6
f 34/33/7 36/35/8 35/36/8 33/34/7
f 36/35/8 38/37/9 37/38/9 35/36/8
f 38/37/9 40/39/10 39/40/10 37/38/9
f 40/39/10 42/41/11 41/42/11 39/40/10
f 42/41/11 44/43/12 43/44/12 41/42/11
f 44/43/12 46/45/13 45/46/13 43/44/12
f 46/45/13 48/47/14 47/48/14 45/46/13
f 48/47/14 26/49/3 25/50/3 47/48/14
